build/axi_top.vcd
$date
	Mon Oct 10 11:00:10 2022
$end
$version
	Icarus Verilog
$end
$timescale
	1ns
$end
$scope module tb_axi_top $end
$var wire 1 ! cmd_abort $end
$var wire 1 " cmd_ready $end
$var parameter 32 # AXI_ADDR_WD $end
$var parameter 32 $ AXI_DATA_WD $end
$var parameter 32 % AXI_ID_WD $end
$var parameter 32 & AXI_STRB_WD $end
$var reg 1 ' clk $end
$var reg 16 ( cmd_addr [15:0] $end
$var reg 2 ) cmd_burst [1:0] $end
$var reg 2 * cmd_id [1:0] $end
$var reg 16 + cmd_len [15:0] $end
$var reg 3 , cmd_size [2:0] $end
$var reg 1 - cmd_valid $end
$var reg 1 . rst_n $end
$scope module axi_top $end
$var wire 1 ' AXI_ACLK $end
$var wire 1 . AXI_ARESETN $end
$var wire 2 / AXI_BRESP [1:0] $end
$var wire 2 0 AXI_RRESP [1:0] $end
$var wire 1 ! cmd_abort $end
$var wire 16 1 cmd_addr [15:0] $end
$var wire 2 2 cmd_burst [1:0] $end
$var wire 2 3 cmd_id [1:0] $end
$var wire 16 4 cmd_len [15:0] $end
$var wire 1 " cmd_ready $end
$var wire 3 5 cmd_size [2:0] $end
$var wire 1 - cmd_valid $end
$var wire 1 6 AXI_WVALID $end
$var wire 4 7 AXI_WSTRB [3:0] $end
$var wire 1 8 AXI_WREADY $end
$var wire 1 9 AXI_WLAST $end
$var wire 32 : AXI_WDATA [31:0] $end
$var wire 1 ; AXI_RVALID $end
$var wire 1 < AXI_RREADY $end
$var wire 1 = AXI_RLAST $end
$var wire 2 > AXI_RID [1:0] $end
$var wire 32 ? AXI_RDATA [31:0] $end
$var wire 1 @ AXI_BVALID $end
$var wire 1 A AXI_BREADY $end
$var wire 2 B AXI_BID [1:0] $end
$var wire 1 C AXI_AWVALID $end
$var wire 3 D AXI_AWSIZE [2:0] $end
$var wire 1 E AXI_AWREADY $end
$var wire 8 F AXI_AWLEN [7:0] $end
$var wire 2 G AXI_AWID [1:0] $end
$var wire 2 H AXI_AWBURST [1:0] $end
$var wire 16 I AXI_AWADDR [15:0] $end
$var wire 1 J AXI_ARVALID $end
$var wire 3 K AXI_ARSIZE [2:0] $end
$var wire 1 L AXI_ARREADY $end
$var wire 8 M AXI_ARLEN [7:0] $end
$var wire 2 N AXI_ARID [1:0] $end
$var wire 2 O AXI_ARBURST [1:0] $end
$var wire 16 P AXI_ARADDR [15:0] $end
$var parameter 32 Q AXI_ADDR_WD $end
$var parameter 32 R AXI_DATA_WD $end
$var parameter 32 S AXI_ID_WD $end
$var parameter 32 T AXI_STRB_WD $end
$scope module axi_master_read $end
$var wire 1 ' M_AXI_ACLK $end
$var wire 16 U M_AXI_ARADDR [15:0] $end
$var wire 2 V M_AXI_ARBURST [1:0] $end
$var wire 1 . M_AXI_ARESETN $end
$var wire 2 W M_AXI_ARID [1:0] $end
$var wire 8 X M_AXI_ARLEN [7:0] $end
$var wire 3 Y M_AXI_ARSIZE [2:0] $end
$var wire 2 Z M_AXI_RRESP [1:0] $end
$var wire 1 [ ar_pending $end
$var wire 1 \ arfire $end
$var wire 1 ] last_rfire $end
$var wire 1 ! r_cmd_abort $end
$var wire 16 ^ r_cmd_addr [15:0] $end
$var wire 2 _ r_cmd_burst [1:0] $end
$var wire 2 ` r_cmd_id [1:0] $end
$var wire 16 a r_cmd_len [15:0] $end
$var wire 1 " r_cmd_ready $end
$var wire 3 b r_cmd_size [2:0] $end
$var wire 1 - r_cmd_valid $end
$var wire 1 c r_fire $end
$var wire 1 d rfire $end
$var wire 1 ; M_AXI_RVALID $end
$var wire 1 < M_AXI_RREADY $end
$var wire 1 = M_AXI_RLAST $end
$var wire 2 e M_AXI_RID [1:0] $end
$var wire 32 f M_AXI_RDATA [31:0] $end
$var wire 1 J M_AXI_ARVALID $end
$var wire 1 L M_AXI_ARREADY $end
$var parameter 33 g ADDRLSB $end
$var parameter 32 h AW $end
$var parameter 34 i AWT $end
$var parameter 32 j AXI_ADDR_WD $end
$var parameter 32 k AXI_DATA_WD $end
$var parameter 32 l AXI_ID_WD $end
$var parameter 32 m AXI_STRB_WD $end
$var parameter 32 n DW $end
$var parameter 2 o FIXED $end
$var parameter 2 p INCREMENT $end
$var parameter 32 q IW $end
$var parameter 32 r LGMAXBURST $end
$var parameter 32 s LGMAX_FIXED_BURST $end
$var parameter 32 t SW $end
$var parameter 32 u T_LGMAXBURST $end
$var parameter 2 v WRAP $end
$var reg 8 w addr_align_combo [7:0] $end
$var reg 10 x ar_burst_outstanding [9:0] $end
$var reg 1 y ar_full_fixed_burst $end
$var reg 1 z ar_full_incr_burst $end
$var reg 1 { ar_incr_burst $end
$var reg 1 | ar_last_outstanding $end
$var reg 1 } ar_needs_alignment $end
$var reg 1 ~ ar_next_full_fixed_burst_remaining_combo $end
$var reg 1 !" ar_next_full_incr_burst_remaining_combo $end
$var reg 14 "" ar_next_remaining_combo [13:0] $end
$var reg 1 #" ar_none_fixed_burst_remaining $end
$var reg 1 $" ar_none_fixed_burst_remaining_combo $end
$var reg 1 %" ar_none_incr_burst_remaining $end
$var reg 1 &" ar_none_incr_burst_remaining_combo $end
$var reg 14 '" ar_requests_remaining [13:0] $end
$var reg 16 (" araddr [15:0] $end
$var reg 2 )" arburst [1:0] $end
$var reg 2 *" arid [1:0] $end
$var reg 14 +" arlent [13:0] $end
$var reg 3 ," arsize [2:0] $end
$var reg 1 -" axi_abort_pending $end
$var reg 16 ." axi_araddr [15:0] $end
$var reg 2 /" axi_arburst [1:0] $end
$var reg 2 0" axi_arid [1:0] $end
$var reg 8 1" axi_arlen [7:0] $end
$var reg 3 2" axi_arsize [2:0] $end
$var reg 1 J axi_arvalid $end
$var reg 1 < axi_rready $end
$var reg 9 3" initial_burst_len_combo [8:0] $end
$var reg 1 4" phantom_start $end
$var reg 1 5" pre_start $end
$var reg 1 6" r_busy $end
$var reg 1 7" r_complete_combo $end
$var reg 9 8" rd_max_burst [8:0] $end
$var reg 1 9" start_burst_combo $end
$upscope $end
$scope module axi_master_write $end
$var wire 1 ' M_AXI_ACLK $end
$var wire 1 . M_AXI_ARESETN $end
$var wire 16 :" M_AXI_AWADDR [15:0] $end
$var wire 2 ;" M_AXI_AWBURST [1:0] $end
$var wire 2 <" M_AXI_AWID [1:0] $end
$var wire 8 =" M_AXI_AWLEN [7:0] $end
$var wire 3 >" M_AXI_AWSIZE [2:0] $end
$var wire 2 ?" M_AXI_BRESP [1:0] $end
$var wire 32 @" M_AXI_WDATA [31:0] $end
$var wire 4 A" M_AXI_WSTRB [3:0] $end
$var wire 1 B" aw_pending $end
$var wire 1 C" awfire $end
$var wire 1 D" bfire $end
$var wire 1 E" last_wfire $end
$var wire 1 ! w_cmd_abort $end
$var wire 16 F" w_cmd_addr [15:0] $end
$var wire 2 G" w_cmd_burst [1:0] $end
$var wire 2 H" w_cmd_id [1:0] $end
$var wire 16 I" w_cmd_len [15:0] $end
$var wire 1 " w_cmd_ready $end
$var wire 3 J" w_cmd_size [2:0] $end
$var wire 1 - w_cmd_valid $end
$var wire 1 K" w_fire $end
$var wire 1 L" w_pending $end
$var wire 1 M" wfire $end
$var wire 1 6 M_AXI_WVALID $end
$var wire 1 8 M_AXI_WREADY $end
$var wire 1 9 M_AXI_WLAST $end
$var wire 1 @ M_AXI_BVALID $end
$var wire 1 A M_AXI_BREADY $end
$var wire 2 N" M_AXI_BID [1:0] $end
$var wire 1 C M_AXI_AWVALID $end
$var wire 1 E M_AXI_AWREADY $end
$var parameter 33 O" ADDRLSB $end
$var parameter 32 P" AW $end
$var parameter 34 Q" AWT $end
$var parameter 32 R" AXI_ADDR_WD $end
$var parameter 32 S" AXI_DATA_WD $end
$var parameter 32 T" AXI_ID_WD $end
$var parameter 32 U" AXI_STRB_WD $end
$var parameter 32 V" DW $end
$var parameter 2 W" FIXED $end
$var parameter 2 X" INCREMENT $end
$var parameter 32 Y" IW $end
$var parameter 32 Z" LGMAXBURST $end
$var parameter 32 [" LGMAX_FIXED_BURST $end
$var parameter 32 \" SW $end
$var parameter 32 ]" T_LGMAXBURST $end
$var parameter 2 ^" WRAP $end
$var reg 8 _" addr_align_combo [7:0] $end
$var reg 1 `" aw_full_fixed_burst $end
$var reg 1 a" aw_full_incr_burst $end
$var reg 1 b" aw_incr_burst $end
$var reg 1 c" aw_needs_alignment $end
$var reg 1 d" aw_next_full_fixed_burst_remaining_combo $end
$var reg 1 e" aw_next_full_incr_burst_remaining_combo $end
$var reg 14 f" aw_next_remaining_combo [13:0] $end
$var reg 1 g" aw_none_fixed_burst_remaining $end
$var reg 1 h" aw_none_fixed_burst_remaining_combo $end
$var reg 1 i" aw_none_incr_burst_remaining $end
$var reg 1 j" aw_none_incr_burst_remaining_combo $end
$var reg 14 k" aw_requests_remaining [13:0] $end
$var reg 16 l" awaddr [15:0] $end
$var reg 2 m" awburst [1:0] $end
$var reg 2 n" awid [1:0] $end
$var reg 14 o" awlent [13:0] $end
$var reg 3 p" awsize [2:0] $end
$var reg 1 q" axi_abort_pending $end
$var reg 16 r" axi_awaddr [15:0] $end
$var reg 2 s" axi_awburst [1:0] $end
$var reg 2 t" axi_awid [1:0] $end
$var reg 8 u" axi_awlen [7:0] $end
$var reg 3 v" axi_awsize [2:0] $end
$var reg 1 C axi_awvalid $end
$var reg 1 A axi_bready $end
$var reg 32 w" axi_wdata [31:0] $end
$var reg 1 9 axi_wlast $end
$var reg 4 x" axi_wstrb [3:0] $end
$var reg 1 6 axi_wvalid $end
$var reg 9 y" initial_burst_len_combo [8:0] $end
$var reg 1 z" phantom_start $end
$var reg 1 {" pre_start $end
$var reg 1 |" start_burst_combo $end
$var reg 1 }" w_busy $end
$var reg 1 ~" w_complete_combo $end
$var reg 9 !# wr_beats_cnt [8:0] $end
$var reg 9 "# wr_max_burst [8:0] $end
$upscope $end
$scope module axi_slave $end
$var wire 1 ' S_AXI_ACLK $end
$var wire 16 ## S_AXI_ARADDR [15:0] $end
$var wire 2 $# S_AXI_ARBURST [1:0] $end
$var wire 1 . S_AXI_ARESETN $end
$var wire 2 %# S_AXI_ARID [1:0] $end
$var wire 8 &# S_AXI_ARLEN [7:0] $end
$var wire 3 '# S_AXI_ARSIZE [2:0] $end
$var wire 1 J S_AXI_ARVALID $end
$var wire 16 (# S_AXI_AWADDR [15:0] $end
$var wire 2 )# S_AXI_AWBURST [1:0] $end
$var wire 2 *# S_AXI_AWID [1:0] $end
$var wire 8 +# S_AXI_AWLEN [7:0] $end
$var wire 3 ,# S_AXI_AWSIZE [2:0] $end
$var wire 1 C S_AXI_AWVALID $end
$var wire 2 -# S_AXI_BID [1:0] $end
$var wire 1 A S_AXI_BREADY $end
$var wire 2 .# S_AXI_BRESP [1:0] $end
$var wire 2 /# S_AXI_RID [1:0] $end
$var wire 1 < S_AXI_RREADY $end
$var wire 2 0# S_AXI_RRESP [1:0] $end
$var wire 32 1# S_AXI_WDATA [31:0] $end
$var wire 1 9 S_AXI_WLAST $end
$var wire 4 2# S_AXI_WSTRB [3:0] $end
$var wire 1 6 S_AXI_WVALID $end
$var wire 1 3# arfire $end
$var wire 1 4# awfire $end
$var wire 1 5# b_pend $end
$var wire 1 6# r_pend $end
$var wire 1 7# rfire $end
$var wire 1 8# wfire $end
$var wire 16 9# next_wr_addr [15:0] $end
$var wire 16 :# next_rd_addr [15:0] $end
$var wire 1 8 S_AXI_WREADY $end
$var wire 1 ; S_AXI_RVALID $end
$var wire 1 = S_AXI_RLAST $end
$var wire 32 ;# S_AXI_RDATA [31:0] $end
$var wire 1 @ S_AXI_BVALID $end
$var wire 1 E S_AXI_AWREADY $end
$var wire 1 L S_AXI_ARREADY $end
$var parameter 32 <# AW $end
$var parameter 32 =# AXI_ADDR_WD $end
$var parameter 32 ># AXI_DATA_WD $end
$var parameter 32 ?# AXI_ID_WD $end
$var parameter 32 @# AXI_STRB_WD $end
$var parameter 48 A# DEPTH $end
$var parameter 32 B# DW $end
$var parameter 32 C# DW_BYTE $end
$var parameter 32 D# IW $end
$var parameter 32 E# SW $end
$var reg 16 F# araddr [15:0] $end
$var reg 2 G# arburst [1:0] $end
$var reg 2 H# arid [1:0] $end
$var reg 8 I# arlen [7:0] $end
$var reg 3 J# arsize [2:0] $end
$var reg 16 K# awaddr [15:0] $end
$var reg 2 L# awburst [1:0] $end
$var reg 2 M# awid [1:0] $end
$var reg 8 N# awlen [7:0] $end
$var reg 3 O# awsize [2:0] $end
$var reg 1 L axi_arready $end
$var reg 1 E axi_awready $end
$var reg 2 P# axi_bid [1:0] $end
$var reg 1 @ axi_bvalid $end
$var reg 16 Q# axi_rdata [15:0] $end
$var reg 2 R# axi_rid [1:0] $end
$var reg 1 = axi_rlast $end
$var reg 1 ; axi_rvalid $end
$var reg 1 8 axi_wready $end
$var reg 1 S# bvalid_r $end
$var reg 8 T# cur_rlen [7:0] $end
$scope module get_next_rd_addr $end
$var wire 2 U# i_burst [1:0] $end
$var wire 16 V# i_last_addr [15:0] $end
$var wire 8 W# i_len [7:0] $end
$var wire 3 X# i_size [2:0] $end
$var parameter 32 Y# AW $end
$var parameter 33 Z# DSZ $end
$var parameter 32 [# DW $end
$var parameter 2 \# FIXED $end
$var parameter 2 ]# INCREMENT $end
$var parameter 2 ^# WRAP $end
$var reg 16 _# increment [15:0] $end
$var reg 16 `# o_next_addr [15:0] $end
$var reg 16 a# wrap_mask [15:0] $end
$upscope $end
$scope module get_next_wr_addr $end
$var wire 2 b# i_burst [1:0] $end
$var wire 16 c# i_last_addr [15:0] $end
$var wire 8 d# i_len [7:0] $end
$var wire 3 e# i_size [2:0] $end
$var parameter 32 f# AW $end
$var parameter 33 g# DSZ $end
$var parameter 32 h# DW $end
$var parameter 2 i# FIXED $end
$var parameter 2 j# INCREMENT $end
$var parameter 2 k# WRAP $end
$var reg 16 l# increment [15:0] $end
$var reg 16 m# o_next_addr [15:0] $end
$var reg 16 n# wrap_mask [15:0] $end
$upscope $end
$scope begin $ivl_for_loop0 $end
$var integer 32 o# i [31:0] $end
$upscope $end
$scope begin $ivl_for_loop1 $end
$var integer 32 p# i [31:0] $end
$upscope $end
$upscope $end
$upscope $end
$upscope $end
$enddefinitions $end
$comment Show the parameter values. $end
$dumpall
b10 k#
b1 j#
b0 i#
b100000 h#
b10 g#
b10000 f#
b10 ^#
b1 ]#
b0 \#
b100000 [#
b10 Z#
b10000 Y#
b100 E#
b10 D#
b100 C#
b100000 B#
b10000000000000000 A#
b100 @#
b10 ?#
b100000 >#
b10000 =#
b10000 <#
b10 ^"
b1010 ]"
b100 \"
b100 ["
b1000 Z"
b10 Y"
b1 X"
b0 W"
b100000 V"
b100 U"
b10 T"
b100000 S"
b10000 R"
b1110 Q"
b10000 P"
b10 O"
b10 v
b1010 u
b100 t
b100 s
b1000 r
b10 q
b1 p
b0 o
b100000 n
b100 m
b10 l
b100000 k
b10000 j
b1110 i
b10000 h
b10 g
b100 T
b10 S
b100000 R
b10000 Q
b100 &
b10 %
b100000 $
b10000 #
$end
#0
$dumpvars
bx p#
bx o#
bx n#
bx m#
bx l#
bx e#
bx d#
bx c#
bx b#
bx a#
bx `#
bx _#
bx X#
bx W#
bx V#
bx U#
bx T#
xS#
bx R#
bx Q#
bx P#
bx O#
bx N#
bx M#
bx L#
bx K#
bx J#
bx I#
bx H#
bx G#
bx F#
b0xxxxxxxxxxxxxxxx ;#
bx :#
bx 9#
x8#
x7#
x6#
x5#
x4#
x3#
bx 2#
bx 1#
b0 0#
bx /#
b0 .#
bx -#
bx ,#
bx +#
bx *#
bx )#
bx (#
bx '#
bx &#
bx %#
bx $#
bx ##
bx "#
bx !#
x~"
x}"
x|"
x{"
xz"
bx y"
bx x"
bx w"
bx v"
bx u"
bx t"
bx s"
bx r"
xq"
bx p"
bx o"
bx n"
bx m"
bx l"
bx k"
xj"
xi"
xh"
xg"
bx f"
xe"
xd"
xc"
xb"
xa"
x`"
bx _"
bx N"
xM"
xL"
xK"
b10 J"
b10000011100 I"
b0 H"
b1 G"
b11111111 F"
xE"
xD"
xC"
xB"
bx A"
bx @"
b0 ?"
bx >"
bx ="
bx <"
bx ;"
bx :"
x9"
bx 8"
x7"
x6"
x5"
x4"
bx 3"
bx 2"
bx 1"
bx 0"
bx /"
bx ."
x-"
bx ,"
bx +"
bx *"
bx )"
bx ("
bx '"
x&"
x%"
x$"
x#"
bx ""
x!"
x~
x}
x|
x{
xz
xy
bx x
bx w
b0xxxxxxxxxxxxxxxx f
bx e
xd
xc
b10 b
b10000011100 a
b0 `
b1 _
b11111111 ^
x]
x\
x[
b0 Z
bx Y
bx X
bx W
bx V
bx U
bx P
bx O
bx N
bx M
xL
bx K
xJ
bx I
bx H
bx G
bx F
xE
bx D
xC
bx B
xA
x@
b0xxxxxxxxxxxxxxxx ?
bx >
x=
x<
x;
bx :
x9
x8
bx 7
x6
b10 5
b10000011100 4
b0 3
b1 2
b11111111 1
b0 0
b0 /
0.
1-
b10 ,
b10000011100 +
b0 *
b1 )
b11111111 (
0'
x"
x!
$end
#5
0E"
0~"
b0 y"
b0 _"
07"
09"
b0 3"
b0 w
08#
0L"
0M"
0|"
04#
0B"
0C"
05#
0D"
03#
0[
0\
06#
07#
0d
0]
0}"
0{"
0C
0`"
0a"
1b"
b0 l"
b0 n"
b0 o"
b0 p"
b1 m"
06
b0 !#
b0 :
b0 @"
b0 1#
b0 w"
0A
06"
05"
0J
0|
b0 x
0y
0z
1{
b0 ("
b0 *"
b0 +"
b0 ,"
b1 )"
0<
08
1E
0@
0S#
b0 T#
1L
0;
0=
1'
#7
1.
#10
0'
#15
1c
1K"
b11000001 3"
b11000001 w
1"
09"
b11000001 y"
b11000001 _"
0|"
b0 P
b0 U
b0 ##
b0 ."
1}
b0 K
b0 Y
b0 '#
b0 2"
b0 N
b0 W
b0 %#
b0 0"
b1 O
b1 V
b1 $#
b1 /"
1y
1z
b11111111 ("
b100000111 +"
b10 ,"
0!
0-"
04"
15"
09
b0 I
b0 :"
b0 (#
b0 r"
1c"
b0 D
b0 >"
b0 ,#
b0 v"
b0 G
b0 <"
b0 *#
b0 t"
b1 H
b1 ;"
b1 )#
b1 s"
1`"
1a"
b11111111 l"
b100000111 o"
b10 p"
0q"
0z"
1{"
1'
#20
0'
#25
b11000001 y"
0|"
0h"
0j"
1d"
1e"
b100000111 f"
0"
b11000001 3"
09"
0$"
0&"
1~
1!"
b100000111 ""
b0 n#
b1 l#
b1 9#
b1 m#
b0 a#
b1 _#
b1 :#
b1 `#
b100 p#
0c
0K"
1}"
b10 D
b10 >"
b10 ,#
b10 v"
1c"
b11000001 "#
0g"
0i"
b100000111 k"
b11111111 I
b11111111 :"
b11111111 (#
b11111111 r"
b1111 7
b1111 A"
b1111 2#
b1111 x"
16"
b10 K
b10 Y
b10 '#
b10 2"
1}
b11000001 8"
0#"
0%"
b100000111 '"
b11111111 P
b11111111 U
b11111111 ##
b11111111 ."
b0 O#
b0 e#
b1 L#
b1 b#
b0 M#
b0 K#
b0 c#
b0 J#
b0 X#
b1 G#
b1 U#
b0 H#
b0 F#
b0 V#
0-
1'
#30
0'
#35
b100 _#
b100000000 :#
b100000000 `#
b100 p#
b100 l#
b100000000 9#
b100000000 m#
19"
1|"
b0 >
b0 e
b0 /#
b0 R#
b10 J#
b10 X#
b11111111 F#
b11111111 V#
b0 B
b0 N"
b0 -#
b0 P#
b10 O#
b10 e#
b11111111 K#
b11111111 c#
b11000000 M
b11000000 X
b11000000 &#
b11000000 1"
05"
b11000000 F
b11000000 ="
b11000000 +#
b11000000 u"
0{"
1'
#40
0'
#45
0e"
b1000110 f"
14#
1C"
1L"
0|"
0!"
b1000110 ""
09"
13#
1\
1z"
1C
16
14"
1J
b11000000 N#
b11000000 d#
b11000000 I#
b11000000 W#
1'
#50
0'
#55
18#
0L"
1M"
17#
1d
19"
03#
0\
0|"
04#
0C"
1;
0L
b11000000 T#
18
0E
1<
b10000000000 P
b10000000000 U
b10000000000 ##
b10000000000 ."
b1000110 '"
b1000110 8"
1|
b1 x
0J
04"
b11000001 !#
b10000000000 I
b10000000000 :"
b10000000000 (#
b10000000000 r"
b1000110 k"
b1000110 "#
0C
0z"
1'
#60
0'
#65
1$"
1&"
0~
b0 ""
09"
1[
b100000100 9#
b100000100 m#
b100000100 :#
b100000100 `#
b0 ?
b0 f
b0 ;#
b0 Q#
b100 p#
b1000101 F
b1000101 ="
b1000101 +#
b1000101 u"
b11000000 !#
b1 :
b1 @"
b1 1#
b1 w"
14"
1J
b1000101 M
b1000101 X
b1000101 &#
b1000101 1"
b100000000 K#
b100000000 c#
b100000000 F#
b100000000 V#
b10111111 T#
b100 o#
1'
#70
0'
#75
b100001000 :#
b100001000 `#
b0xxxxxxxxxxxxxxxx ?
b0xxxxxxxxxxxxxxxx f
b0xxxxxxxxxxxxxxxx ;#
bx Q#
b100 p#
b100001000 9#
b100001000 m#
b10111110 T#
b100000100 F#
b100000100 V#
b100000100 K#
b100000100 c#
1#"
1%"
b0 '"
b0 8"
0|
b10 x
04"
b10 :
b10 @"
b10 1#
b10 w"
b10111111 !#
b100 o#
1'
#80
0'
#85
b100001100 9#
b100001100 m#
b100001100 :#
b100001100 `#
b100 p#
b10111110 !#
b11 :
b11 @"
b11 1#
b11 w"
b100001000 K#
b100001000 c#
b100001000 F#
b100001000 V#
b10111101 T#
b100 o#
1'
#90
0'
#95
b100010000 :#
b100010000 `#
b100 p#
b100010000 9#
b100010000 m#
b10111100 T#
b100001100 F#
b100001100 V#
b100001100 K#
b100001100 c#
b100 :
b100 @"
b100 1#
b100 w"
b10111101 !#
b100 o#
1'
#100
0'
#105
b100010100 9#
b100010100 m#
b100010100 :#
b100010100 `#
b100 p#
b10111100 !#
b101 :
b101 @"
b101 1#
b101 w"
b100010000 K#
b100010000 c#
b100010000 F#
b100010000 V#
b10111011 T#
b100 o#
1'
#110
0'
#115
b100011000 :#
b100011000 `#
b100 p#
b100011000 9#
b100011000 m#
b10111010 T#
b100010100 F#
b100010100 V#
b100010100 K#
b100010100 c#
b110 :
b110 @"
b110 1#
b110 w"
b10111011 !#
b100 o#
1'
#120
0'
#125
b100011100 9#
b100011100 m#
b100011100 :#
b100011100 `#
b100 p#
b10111010 !#
b111 :
b111 @"
b111 1#
b111 w"
b100011000 K#
b100011000 c#
b100011000 F#
b100011000 V#
b10111001 T#
b100 o#
1'
#130
0'
#135
b100100000 :#
b100100000 `#
b100 p#
b100100000 9#
b100100000 m#
b10111000 T#
b100011100 F#
b100011100 V#
b100011100 K#
b100011100 c#
b1000 :
b1000 @"
b1000 1#
b1000 w"
b10111001 !#
b100 o#
1'
#140
0'
#145
b100100100 9#
b100100100 m#
b100100100 :#
b100100100 `#
b100 p#
b10111000 !#
b1001 :
b1001 @"
b1001 1#
b1001 w"
b100100000 K#
b100100000 c#
b100100000 F#
b100100000 V#
b10110111 T#
b100 o#
1'
#150
0'
#155
b100101000 :#
b100101000 `#
b100 p#
b100101000 9#
b100101000 m#
b10110110 T#
b100100100 F#
b100100100 V#
b100100100 K#
b100100100 c#
b1010 :
b1010 @"
b1010 1#
b1010 w"
b10110111 !#
b100 o#
1'
#160
0'
#165
b100101100 9#
b100101100 m#
b100101100 :#
b100101100 `#
b100 p#
b10110110 !#
b1011 :
b1011 @"
b1011 1#
b1011 w"
b100101000 K#
b100101000 c#
b100101000 F#
b100101000 V#
b10110101 T#
b100 o#
1'
#170
0'
#175
b100110000 :#
b100110000 `#
b100 p#
b100110000 9#
b100110000 m#
b10110100 T#
b100101100 F#
b100101100 V#
b100101100 K#
b100101100 c#
b1100 :
b1100 @"
b1100 1#
b1100 w"
b10110101 !#
b100 o#
1'
#180
0'
#185
b100110100 9#
b100110100 m#
b100110100 :#
b100110100 `#
b100 p#
b10110100 !#
b1101 :
b1101 @"
b1101 1#
b1101 w"
b100110000 K#
b100110000 c#
b100110000 F#
b100110000 V#
b10110011 T#
b100 o#
1'
#190
0'
#195
b100111000 :#
b100111000 `#
b100 p#
b100111000 9#
b100111000 m#
b10110010 T#
b100110100 F#
b100110100 V#
b100110100 K#
b100110100 c#
b1110 :
b1110 @"
b1110 1#
b1110 w"
b10110011 !#
b100 o#
1'
#200
0'
#205
b100111100 9#
b100111100 m#
b100111100 :#
b100111100 `#
b100 p#
b10110010 !#
b1111 :
b1111 @"
b1111 1#
b1111 w"
b100111000 K#
b100111000 c#
b100111000 F#
b100111000 V#
b10110001 T#
b100 o#
1'
#210
0'
#215
b101000000 :#
b101000000 `#
b100 p#
b101000000 9#
b101000000 m#
b10110000 T#
b100111100 F#
b100111100 V#
b100111100 K#
b100111100 c#
b10000 :
b10000 @"
b10000 1#
b10000 w"
b10110001 !#
b100 o#
1'
#220
0'
#225
b101000100 9#
b101000100 m#
b101000100 :#
b101000100 `#
b100 p#
b10110000 !#
b10001 :
b10001 @"
b10001 1#
b10001 w"
b101000000 K#
b101000000 c#
b101000000 F#
b101000000 V#
b10101111 T#
b100 o#
1'
#230
0'
#235
b101001000 :#
b101001000 `#
b100 p#
b101001000 9#
b101001000 m#
b10101110 T#
b101000100 F#
b101000100 V#
b101000100 K#
b101000100 c#
b10010 :
b10010 @"
b10010 1#
b10010 w"
b10101111 !#
b100 o#
1'
#240
0'
#245
b101001100 9#
b101001100 m#
b101001100 :#
b101001100 `#
b100 p#
b10101110 !#
b10011 :
b10011 @"
b10011 1#
b10011 w"
b101001000 K#
b101001000 c#
b101001000 F#
b101001000 V#
b10101101 T#
b100 o#
1'
#250
0'
#255
b101010000 :#
b101010000 `#
b100 p#
b101010000 9#
b101010000 m#
b10101100 T#
b101001100 F#
b101001100 V#
b101001100 K#
b101001100 c#
b10100 :
b10100 @"
b10100 1#
b10100 w"
b10101101 !#
b100 o#
1'
#260
0'
#265
b101010100 9#
b101010100 m#
b101010100 :#
b101010100 `#
b100 p#
b10101100 !#
b10101 :
b10101 @"
b10101 1#
b10101 w"
b101010000 K#
b101010000 c#
b101010000 F#
b101010000 V#
b10101011 T#
b100 o#
1'
#270
0'
#275
b101011000 :#
b101011000 `#
b100 p#
b101011000 9#
b101011000 m#
b10101010 T#
b101010100 F#
b101010100 V#
b101010100 K#
b101010100 c#
b10110 :
b10110 @"
b10110 1#
b10110 w"
b10101011 !#
b100 o#
1'
#280
0'
#285
b101011100 9#
b101011100 m#
b101011100 :#
b101011100 `#
b100 p#
b10101010 !#
b10111 :
b10111 @"
b10111 1#
b10111 w"
b101011000 K#
b101011000 c#
b101011000 F#
b101011000 V#
b10101001 T#
b100 o#
1'
#290
0'
#295
b101100000 :#
b101100000 `#
b100 p#
b101100000 9#
b101100000 m#
b10101000 T#
b101011100 F#
b101011100 V#
b101011100 K#
b101011100 c#
b11000 :
b11000 @"
b11000 1#
b11000 w"
b10101001 !#
b100 o#
1'
#300
0'
#305
b101100100 9#
b101100100 m#
b101100100 :#
b101100100 `#
b100 p#
b10101000 !#
b11001 :
b11001 @"
b11001 1#
b11001 w"
b101100000 K#
b101100000 c#
b101100000 F#
b101100000 V#
b10100111 T#
b100 o#
1'
#310
0'
#315
b101101000 :#
b101101000 `#
b100 p#
b101101000 9#
b101101000 m#
b10100110 T#
b101100100 F#
b101100100 V#
b101100100 K#
b101100100 c#
b11010 :
b11010 @"
b11010 1#
b11010 w"
b10100111 !#
b100 o#
1'
#320
0'
#325
b101101100 9#
b101101100 m#
b101101100 :#
b101101100 `#
b100 p#
b10100110 !#
b11011 :
b11011 @"
b11011 1#
b11011 w"
b101101000 K#
b101101000 c#
b101101000 F#
b101101000 V#
b10100101 T#
b100 o#
1'
#330
0'
#335
b101110000 :#
b101110000 `#
b100 p#
b101110000 9#
b101110000 m#
b10100100 T#
b101101100 F#
b101101100 V#
b101101100 K#
b101101100 c#
b11100 :
b11100 @"
b11100 1#
b11100 w"
b10100101 !#
b100 o#
1'
#340
0'
#345
b101110100 9#
b101110100 m#
b101110100 :#
b101110100 `#
b100 p#
b10100100 !#
b11101 :
b11101 @"
b11101 1#
b11101 w"
b101110000 K#
b101110000 c#
b101110000 F#
b101110000 V#
b10100011 T#
b100 o#
1'
#350
0'
#355
b101111000 :#
b101111000 `#
b100 p#
b101111000 9#
b101111000 m#
b10100010 T#
b101110100 F#
b101110100 V#
b101110100 K#
b101110100 c#
b11110 :
b11110 @"
b11110 1#
b11110 w"
b10100011 !#
b100 o#
1'
#360
0'
#365
b101111100 9#
b101111100 m#
b101111100 :#
b101111100 `#
b100 p#
b10100010 !#
b11111 :
b11111 @"
b11111 1#
b11111 w"
b101111000 K#
b101111000 c#
b101111000 F#
b101111000 V#
b10100001 T#
b100 o#
1'
#370
0'
#375
b110000000 :#
b110000000 `#
b100 p#
b110000000 9#
b110000000 m#
b10100000 T#
b101111100 F#
b101111100 V#
b101111100 K#
b101111100 c#
b100000 :
b100000 @"
b100000 1#
b100000 w"
b10100001 !#
b100 o#
1'
#380
0'
#385
b110000100 9#
b110000100 m#
b110000100 :#
b110000100 `#
b100 p#
b10100000 !#
b100001 :
b100001 @"
b100001 1#
b100001 w"
b110000000 K#
b110000000 c#
b110000000 F#
b110000000 V#
b10011111 T#
b100 o#
1'
#390
0'
#395
b110001000 :#
b110001000 `#
b100 p#
b110001000 9#
b110001000 m#
b10011110 T#
b110000100 F#
b110000100 V#
b110000100 K#
b110000100 c#
b100010 :
b100010 @"
b100010 1#
b100010 w"
b10011111 !#
b100 o#
1'
#400
0'
#405
b110001100 9#
b110001100 m#
b110001100 :#
b110001100 `#
b100 p#
b10011110 !#
b100011 :
b100011 @"
b100011 1#
b100011 w"
b110001000 K#
b110001000 c#
b110001000 F#
b110001000 V#
b10011101 T#
b100 o#
1'
#410
0'
