build/axi_top.vcd
$date
	Mon Oct 10 19:20:57 2022
$end
$version
	Icarus Verilog
$end
$timescale
	1ns
$end
$scope module tb_axi_top $end
$var wire 1 ! cmd_abort $end
$var wire 1 " cmd_ready $end
$var parameter 32 # AXI_ADDR_WD $end
$var parameter 32 $ AXI_DATA_WD $end
$var parameter 32 % AXI_ID_WD $end
$var parameter 32 & AXI_STRB_WD $end
$var reg 1 ' clk $end
$var reg 16 ( cmd_addr [15:0] $end
$var reg 2 ) cmd_burst [1:0] $end
$var reg 2 * cmd_id [1:0] $end
$var reg 16 + cmd_len [15:0] $end
$var reg 3 , cmd_size [2:0] $end
$var reg 1 - cmd_valid $end
$var reg 1 . rst_n $end
$scope module axi_top $end
$var wire 1 ' AXI_ACLK $end
$var wire 1 . AXI_ARESETN $end
$var wire 2 / AXI_BRESP [1:0] $end
$var wire 2 0 AXI_RRESP [1:0] $end
$var wire 1 ! cmd_abort $end
$var wire 16 1 cmd_addr [15:0] $end
$var wire 2 2 cmd_burst [1:0] $end
$var wire 2 3 cmd_id [1:0] $end
$var wire 16 4 cmd_len [15:0] $end
$var wire 1 " cmd_ready $end
$var wire 3 5 cmd_size [2:0] $end
$var wire 1 - cmd_valid $end
$var wire 1 6 AXI_WVALID $end
$var wire 4 7 AXI_WSTRB [3:0] $end
$var wire 1 8 AXI_WREADY $end
$var wire 1 9 AXI_WLAST $end
$var wire 32 : AXI_WDATA [31:0] $end
$var wire 1 ; AXI_RVALID $end
$var wire 1 < AXI_RREADY $end
$var wire 1 = AXI_RLAST $end
$var wire 2 > AXI_RID [1:0] $end
$var wire 32 ? AXI_RDATA [31:0] $end
$var wire 1 @ AXI_BVALID $end
$var wire 1 A AXI_BREADY $end
$var wire 2 B AXI_BID [1:0] $end
$var wire 1 C AXI_AWVALID $end
$var wire 3 D AXI_AWSIZE [2:0] $end
$var wire 1 E AXI_AWREADY $end
$var wire 8 F AXI_AWLEN [7:0] $end
$var wire 2 G AXI_AWID [1:0] $end
$var wire 2 H AXI_AWBURST [1:0] $end
$var wire 16 I AXI_AWADDR [15:0] $end
$var wire 1 J AXI_ARVALID $end
$var wire 3 K AXI_ARSIZE [2:0] $end
$var wire 1 L AXI_ARREADY $end
$var wire 8 M AXI_ARLEN [7:0] $end
$var wire 2 N AXI_ARID [1:0] $end
$var wire 2 O AXI_ARBURST [1:0] $end
$var wire 16 P AXI_ARADDR [15:0] $end
$var parameter 32 Q AXI_ADDR_WD $end
$var parameter 32 R AXI_DATA_WD $end
$var parameter 32 S AXI_ID_WD $end
$var parameter 32 T AXI_STRB_WD $end
$scope module axi_master_read $end
$var wire 1 ' M_AXI_ACLK $end
$var wire 16 U M_AXI_ARADDR [15:0] $end
$var wire 2 V M_AXI_ARBURST [1:0] $end
$var wire 1 . M_AXI_ARESETN $end
$var wire 2 W M_AXI_ARID [1:0] $end
$var wire 8 X M_AXI_ARLEN [7:0] $end
$var wire 3 Y M_AXI_ARSIZE [2:0] $end
$var wire 2 Z M_AXI_RRESP [1:0] $end
$var wire 1 [ ar_pending $end
$var wire 1 \ arfire $end
$var wire 1 ] last_rfire $end
$var wire 1 ! r_cmd_abort $end
$var wire 16 ^ r_cmd_addr [15:0] $end
$var wire 2 _ r_cmd_burst [1:0] $end
$var wire 2 ` r_cmd_id [1:0] $end
$var wire 16 a r_cmd_len [15:0] $end
$var wire 1 " r_cmd_ready $end
$var wire 3 b r_cmd_size [2:0] $end
$var wire 1 - r_cmd_valid $end
$var wire 1 c r_fire $end
$var wire 1 d rfire $end
$var wire 1 ; M_AXI_RVALID $end
$var wire 1 < M_AXI_RREADY $end
$var wire 1 = M_AXI_RLAST $end
$var wire 2 e M_AXI_RID [1:0] $end
$var wire 32 f M_AXI_RDATA [31:0] $end
$var wire 1 J M_AXI_ARVALID $end
$var wire 1 L M_AXI_ARREADY $end
$var parameter 33 g ADDRLSB $end
$var parameter 32 h AW $end
$var parameter 34 i AWT $end
$var parameter 32 j AXI_ADDR_WD $end
$var parameter 32 k AXI_DATA_WD $end
$var parameter 32 l AXI_ID_WD $end
$var parameter 32 m AXI_STRB_WD $end
$var parameter 32 n DW $end
$var parameter 2 o FIXED $end
$var parameter 2 p INCREMENT $end
$var parameter 32 q IW $end
$var parameter 32 r LGMAXBURST $end
$var parameter 32 s LGMAX_FIXED_BURST $end
$var parameter 32 t SW $end
$var parameter 32 u T_LGMAXBURST $end
$var parameter 2 v WRAP $end
$var reg 8 w addr_align_combo [7:0] $end
$var reg 10 x ar_burst_outstanding [9:0] $end
$var reg 1 y ar_full_fixed_burst $end
$var reg 1 z ar_full_incr_burst $end
$var reg 1 { ar_incr_burst $end
$var reg 1 | ar_last_outstanding $end
$var reg 1 } ar_needs_alignment $end
$var reg 1 ~ ar_next_full_fixed_burst_remaining_combo $end
$var reg 1 !" ar_next_full_incr_burst_remaining_combo $end
$var reg 14 "" ar_next_remaining_combo [13:0] $end
$var reg 1 #" ar_none_fixed_burst_remaining $end
$var reg 1 $" ar_none_fixed_burst_remaining_combo $end
$var reg 1 %" ar_none_incr_burst_remaining $end
$var reg 1 &" ar_none_incr_burst_remaining_combo $end
$var reg 14 '" ar_requests_remaining [13:0] $end
$var reg 16 (" araddr [15:0] $end
$var reg 2 )" arburst [1:0] $end
$var reg 2 *" arid [1:0] $end
$var reg 14 +" arlent [13:0] $end
$var reg 3 ," arsize [2:0] $end
$var reg 1 -" axi_abort_pending $end
$var reg 16 ." axi_araddr [15:0] $end
$var reg 2 /" axi_arburst [1:0] $end
$var reg 2 0" axi_arid [1:0] $end
$var reg 8 1" axi_arlen [7:0] $end
$var reg 3 2" axi_arsize [2:0] $end
$var reg 1 J axi_arvalid $end
$var reg 1 < axi_rready $end
$var reg 9 3" initial_burst_len_combo [8:0] $end
$var reg 1 4" phantom_start $end
$var reg 1 5" pre_start $end
$var reg 1 6" r_busy $end
$var reg 1 7" r_complete_combo $end
$var reg 9 8" rd_max_burst [8:0] $end
$var reg 1 9" start_burst_combo $end
$upscope $end
$scope module axi_master_write $end
$var wire 1 ' M_AXI_ACLK $end
$var wire 1 . M_AXI_ARESETN $end
$var wire 16 :" M_AXI_AWADDR [15:0] $end
$var wire 2 ;" M_AXI_AWBURST [1:0] $end
$var wire 2 <" M_AXI_AWID [1:0] $end
$var wire 8 =" M_AXI_AWLEN [7:0] $end
$var wire 3 >" M_AXI_AWSIZE [2:0] $end
$var wire 2 ?" M_AXI_BRESP [1:0] $end
$var wire 32 @" M_AXI_WDATA [31:0] $end
$var wire 4 A" M_AXI_WSTRB [3:0] $end
$var wire 1 B" aw_pending $end
$var wire 1 C" awfire $end
$var wire 1 D" bfire $end
$var wire 1 E" last_wfire $end
$var wire 1 ! w_cmd_abort $end
$var wire 16 F" w_cmd_addr [15:0] $end
$var wire 2 G" w_cmd_burst [1:0] $end
$var wire 2 H" w_cmd_id [1:0] $end
$var wire 16 I" w_cmd_len [15:0] $end
$var wire 1 " w_cmd_ready $end
$var wire 3 J" w_cmd_size [2:0] $end
$var wire 1 - w_cmd_valid $end
$var wire 1 K" w_fire $end
$var wire 1 L" w_pending $end
$var wire 1 M" wfire $end
$var wire 1 6 M_AXI_WVALID $end
$var wire 1 8 M_AXI_WREADY $end
$var wire 1 9 M_AXI_WLAST $end
$var wire 1 @ M_AXI_BVALID $end
$var wire 1 A M_AXI_BREADY $end
$var wire 2 N" M_AXI_BID [1:0] $end
$var wire 1 C M_AXI_AWVALID $end
$var wire 1 E M_AXI_AWREADY $end
$var parameter 33 O" ADDRLSB $end
$var parameter 32 P" AW $end
$var parameter 34 Q" AWT $end
$var parameter 32 R" AXI_ADDR_WD $end
$var parameter 32 S" AXI_DATA_WD $end
$var parameter 32 T" AXI_ID_WD $end
$var parameter 32 U" AXI_STRB_WD $end
$var parameter 32 V" DW $end
$var parameter 2 W" FIXED $end
$var parameter 2 X" INCREMENT $end
$var parameter 32 Y" IW $end
$var parameter 32 Z" LGMAXBURST $end
$var parameter 32 [" LGMAX_FIXED_BURST $end
$var parameter 32 \" SW $end
$var parameter 32 ]" T_LGMAXBURST $end
$var parameter 2 ^" WRAP $end
$var reg 8 _" addr_align_combo [7:0] $end
$var reg 1 `" aw_full_fixed_burst $end
$var reg 1 a" aw_full_incr_burst $end
$var reg 1 b" aw_incr_burst $end
$var reg 1 c" aw_needs_alignment $end
$var reg 1 d" aw_next_full_fixed_burst_remaining_combo $end
$var reg 1 e" aw_next_full_incr_burst_remaining_combo $end
$var reg 14 f" aw_next_remaining_combo [13:0] $end
$var reg 1 g" aw_none_fixed_burst_remaining $end
$var reg 1 h" aw_none_fixed_burst_remaining_combo $end
$var reg 1 i" aw_none_incr_burst_remaining $end
$var reg 1 j" aw_none_incr_burst_remaining_combo $end
$var reg 14 k" aw_requests_remaining [13:0] $end
$var reg 16 l" awaddr [15:0] $end
$var reg 2 m" awburst [1:0] $end
$var reg 2 n" awid [1:0] $end
$var reg 14 o" awlent [13:0] $end
$var reg 3 p" awsize [2:0] $end
$var reg 1 q" axi_abort_pending $end
$var reg 16 r" axi_awaddr [15:0] $end
$var reg 2 s" axi_awburst [1:0] $end
$var reg 2 t" axi_awid [1:0] $end
$var reg 8 u" axi_awlen [7:0] $end
$var reg 3 v" axi_awsize [2:0] $end
$var reg 1 C axi_awvalid $end
$var reg 1 A axi_bready $end
$var reg 32 w" axi_wdata [31:0] $end
$var reg 1 9 axi_wlast $end
$var reg 4 x" axi_wstrb [3:0] $end
$var reg 1 6 axi_wvalid $end
$var reg 9 y" initial_burst_len_combo [8:0] $end
$var reg 1 z" phantom_start $end
$var reg 1 {" pre_start $end
$var reg 1 |" start_burst_combo $end
$var reg 1 }" w_busy $end
$var reg 1 ~" w_complete_combo $end
$var reg 9 !# wr_beats_cnt [8:0] $end
$var reg 9 "# wr_max_burst [8:0] $end
$upscope $end
$scope module axi_slave_outstanding $end
$var wire 1 ' S_AXI_ACLK $end
$var wire 16 ## S_AXI_ARADDR [15:0] $end
$var wire 2 $# S_AXI_ARBURST [1:0] $end
$var wire 1 . S_AXI_ARESETN $end
$var wire 2 %# S_AXI_ARID [1:0] $end
$var wire 8 &# S_AXI_ARLEN [7:0] $end
$var wire 3 '# S_AXI_ARSIZE [2:0] $end
$var wire 1 J S_AXI_ARVALID $end
$var wire 16 (# S_AXI_AWADDR [15:0] $end
$var wire 2 )# S_AXI_AWBURST [1:0] $end
$var wire 2 *# S_AXI_AWID [1:0] $end
$var wire 8 +# S_AXI_AWLEN [7:0] $end
$var wire 3 ,# S_AXI_AWSIZE [2:0] $end
$var wire 1 C S_AXI_AWVALID $end
$var wire 2 -# S_AXI_BID [1:0] $end
$var wire 1 A S_AXI_BREADY $end
$var wire 2 .# S_AXI_BRESP [1:0] $end
$var wire 2 /# S_AXI_RID [1:0] $end
$var wire 1 < S_AXI_RREADY $end
$var wire 2 0# S_AXI_RRESP [1:0] $end
$var wire 32 1# S_AXI_WDATA [31:0] $end
$var wire 1 9 S_AXI_WLAST $end
$var wire 4 2# S_AXI_WSTRB [3:0] $end
$var wire 1 6 S_AXI_WVALID $end
$var wire 1 3# arfire $end
$var wire 1 4# awfire $end
$var wire 1 5# b_pend $end
$var wire 1 6# r_pend $end
$var wire 1 7# rfire $end
$var wire 1 8# wfire $end
$var wire 16 9# next_wr_addr [15:0] $end
$var wire 16 :# next_rd_addr [15:0] $end
$var wire 1 ;# fifo_full $end
$var wire 1 <# fifo_empty $end
$var wire 1 8 S_AXI_WREADY $end
$var wire 1 ; S_AXI_RVALID $end
$var wire 1 = S_AXI_RLAST $end
$var wire 32 =# S_AXI_RDATA [31:0] $end
$var wire 1 @ S_AXI_BVALID $end
$var wire 1 E S_AXI_AWREADY $end
$var wire 1 L S_AXI_ARREADY $end
$var parameter 32 ># AW $end
$var parameter 32 ?# AXI_ADDR_WD $end
$var parameter 32 @# AXI_DATA_WD $end
$var parameter 32 A# AXI_ID_WD $end
$var parameter 32 B# AXI_STRB_WD $end
$var parameter 48 C# DEPTH $end
$var parameter 32 D# DW $end
$var parameter 32 E# DW_BYTE $end
$var parameter 32 F# IW $end
$var parameter 32 G# SW $end
$var reg 16 H# araddr [15:0] $end
$var reg 2 I# arburst [1:0] $end
$var reg 2 J# arid [1:0] $end
$var reg 8 K# arlen [7:0] $end
$var reg 3 L# arsize [2:0] $end
$var reg 16 M# awaddr [15:0] $end
$var reg 2 N# awburst [1:0] $end
$var reg 2 O# awid [1:0] $end
$var reg 8 P# awlen [7:0] $end
$var reg 3 Q# awsize [2:0] $end
$var reg 1 L axi_arready $end
$var reg 1 E axi_awready $end
$var reg 2 R# axi_bid [1:0] $end
$var reg 1 @ axi_bvalid $end
$var reg 16 S# axi_rdata [15:0] $end
$var reg 2 T# axi_rid [1:0] $end
$var reg 1 = axi_rlast $end
$var reg 1 ; axi_rvalid $end
$var reg 1 8 axi_wready $end
$var reg 1 U# bvalid_r $end
$var reg 8 V# cur_rlen [7:0] $end
$var reg 5 W# rd_ptr [4:0] $end
$var reg 5 X# wr_ptr [4:0] $end
$scope module get_next_rd_addr $end
$var wire 2 Y# i_burst [1:0] $end
$var wire 16 Z# i_last_addr [15:0] $end
$var wire 8 [# i_len [7:0] $end
$var wire 3 \# i_size [2:0] $end
$var parameter 32 ]# AW $end
$var parameter 33 ^# DSZ $end
$var parameter 32 _# DW $end
$var parameter 2 `# FIXED $end
$var parameter 2 a# INCREMENT $end
$var parameter 2 b# WRAP $end
$var reg 16 c# increment [15:0] $end
$var reg 16 d# o_next_addr [15:0] $end
$var reg 16 e# wrap_mask [15:0] $end
$upscope $end
$scope module get_next_wr_addr $end
$var wire 2 f# i_burst [1:0] $end
$var wire 16 g# i_last_addr [15:0] $end
$var wire 8 h# i_len [7:0] $end
$var wire 3 i# i_size [2:0] $end
$var parameter 32 j# AW $end
$var parameter 33 k# DSZ $end
$var parameter 32 l# DW $end
$var parameter 2 m# FIXED $end
$var parameter 2 n# INCREMENT $end
$var parameter 2 o# WRAP $end
$var reg 16 p# increment [15:0] $end
$var reg 16 q# o_next_addr [15:0] $end
$var reg 16 r# wrap_mask [15:0] $end
$upscope $end
$scope begin $ivl_for_loop0 $end
$var integer 32 s# i [31:0] $end
$upscope $end
$scope begin $ivl_for_loop1 $end
$var integer 32 t# i [31:0] $end
$upscope $end
$upscope $end
$upscope $end
$upscope $end
$enddefinitions $end
$comment Show the parameter values. $end
$dumpall
b10 o#
b1 n#
b0 m#
b100000 l#
b10 k#
b10000 j#
b10 b#
b1 a#
b0 `#
b100000 _#
b10 ^#
b10000 ]#
b100 G#
b10 F#
b100 E#
b100000 D#
b10000000000000000 C#
b100 B#
b10 A#
b100000 @#
b10000 ?#
b10000 >#
b10 ^"
b1010 ]"
b100 \"
b100 ["
b1000 Z"
b10 Y"
b1 X"
b0 W"
b100000 V"
b100 U"
b10 T"
b100000 S"
b10000 R"
b1110 Q"
b10000 P"
b10 O"
b10 v
b1010 u
b100 t
b100 s
b1000 r
b10 q
b1 p
b0 o
b100000 n
b100 m
b10 l
b100000 k
b10000 j
b1110 i
b10000 h
b10 g
b100 T
b10 S
b100000 R
b10000 Q
b100 &
b10 %
b100000 $
b10000 #
$end
#0
$dumpvars
bx t#
bx s#
bx r#
bx q#
bx p#
bx i#
bx h#
bx g#
bx f#
bx e#
bx d#
bx c#
bx \#
bx [#
bx Z#
bx Y#
bx X#
bx W#
bx V#
xU#
bx T#
bx S#
bx R#
bx Q#
bx P#
bx O#
bx N#
bx M#
bx L#
bx K#
bx J#
bx I#
bx H#
b0xxxxxxxxxxxxxxxx =#
x<#
x;#
bx :#
bx 9#
x8#
x7#
x6#
x5#
x4#
x3#
bx 2#
bx 1#
b0 0#
bx /#
b0 .#
bx -#
bx ,#
bx +#
bx *#
bx )#
bx (#
bx '#
bx &#
bx %#
bx $#
bx ##
bx "#
bx !#
x~"
x}"
x|"
x{"
xz"
bx y"
bx x"
bx w"
bx v"
bx u"
bx t"
bx s"
bx r"
xq"
bx p"
bx o"
bx n"
bx m"
bx l"
bx k"
xj"
xi"
xh"
xg"
bx f"
xe"
xd"
xc"
xb"
xa"
x`"
bx _"
bx N"
xM"
xL"
xK"
b10 J"
b10000011100 I"
b0 H"
b1 G"
b11111111 F"
xE"
xD"
xC"
xB"
bx A"
bx @"
b0 ?"
bx >"
bx ="
bx <"
bx ;"
bx :"
x9"
bx 8"
x7"
x6"
x5"
x4"
bx 3"
bx 2"
bx 1"
bx 0"
bx /"
bx ."
x-"
bx ,"
bx +"
bx *"
bx )"
bx ("
bx '"
x&"
x%"
x$"
x#"
bx ""
x!"
x~
x}
x|
x{
xz
xy
bx x
bx w
b0xxxxxxxxxxxxxxxx f
bx e
xd
xc
b10 b
b10000011100 a
b0 `
b1 _
b11111111 ^
x]
x\
x[
b0 Z
bx Y
bx X
bx W
bx V
bx U
bx P
bx O
bx N
bx M
xL
bx K
xJ
bx I
bx H
bx G
bx F
xE
bx D
xC
bx B
xA
x@
b0xxxxxxxxxxxxxxxx ?
bx >
x=
x<
x;
bx :
x9
x8
bx 7
x6
b10 5
b10000011100 4
b0 3
b1 2
b11111111 1
b0 0
b0 /
0.
1-
b10 ,
b10000011100 +
b0 *
b1 )
b11111111 (
0'
x"
x!
$end
#5
0E"
0;#
0~"
b0 y"
b0 _"
07"
09"
b0 3"
b0 w
08#
0L"
0M"
0|"
04#
0B"
0C"
05#
0D"
03#
0[
0\
06#
07#
0d
0]
0}"
0{"
0C
0`"
0a"
1b"
b0 l"
b0 n"
b0 o"
b0 p"
b1 m"
06
b0 !#
b0 :
b0 @"
b0 1#
b0 w"
0A
06"
05"
0J
0|
b0 x
0y
0z
1{
b0 ("
b0 *"
b0 +"
b0 ,"
b1 )"
0<
08
1E
0@
0U#
1<#
b0 X#
b0 W#
b0 V#
1L
0;
0=
1'
#7
1.
#10
0'
#15
1c
1K"
b11000001 3"
b11000001 w
1"
09"
b11000001 y"
b11000001 _"
0|"
b0 P
b0 U
b0 ##
b0 ."
1}
b0 K
b0 Y
b0 '#
b0 2"
b0 N
b0 W
b0 %#
b0 0"
b1 O
b1 V
b1 $#
b1 /"
1y
1z
b11111111 ("
b100000111 +"
b10 ,"
0!
0-"
04"
15"
09
b0 I
b0 :"
b0 (#
b0 r"
1c"
b0 D
b0 >"
b0 ,#
b0 v"
b0 G
b0 <"
b0 *#
b0 t"
b1 H
b1 ;"
b1 )#
b1 s"
1`"
1a"
b11111111 l"
b100000111 o"
b10 p"
0q"
0z"
1{"
1'
#20
0'
#25
b11000001 y"
0|"
0h"
0j"
1d"
1e"
b100000111 f"
0"
b11000001 3"
09"
0$"
0&"
1~
1!"
b100000111 ""
b0 r#
b1 p#
b1 9#
b1 q#
b0 e#
b1 c#
0c
0K"
1}"
b10 D
b10 >"
b10 ,#
b10 v"
1c"
b11000001 "#
0g"
0i"
b100000111 k"
b11111111 I
b11111111 :"
b11111111 (#
b11111111 r"
b1111 7
b1111 A"
b1111 2#
b1111 x"
16"
b10 K
b10 Y
b10 '#
b10 2"
1}
b11000001 8"
0#"
0%"
b100000111 '"
b11111111 P
b11111111 U
b11111111 ##
b11111111 ."
b0 Q#
b0 i#
b1 N#
b1 f#
b0 O#
b0 M#
b0 g#
b0 L#
b0 \#
b1 I#
b1 Y#
b0 J#
0-
1'
#30
0'
#35
bx00 :#
bx00 d#
b100 c#
b100 p#
b100000000 9#
b100000000 q#
19"
1|"
b0 >
b0 e
b0 /#
b0 T#
b10 L#
b10 \#
b0 B
b0 N"
b0 -#
b0 R#
b10 Q#
b10 i#
b11111111 M#
b11111111 g#
b11000000 M
b11000000 X
b11000000 &#
b11000000 1"
05"
b11000000 F
b11000000 ="
b11000000 +#
b11000000 u"
0{"
1'
#40
0'
#45
0e"
b1000110 f"
14#
1C"
1L"
0|"
0!"
b1000110 ""
09"
13#
1\
1z"
1C
16
14"
1J
b11000000 P#
b11000000 h#
1'
#50
0'
#55
18#
0L"
1M"
19"
03#
0\
0|"
04#
0C"
0<#
b1 X#
18
0E
1<
b10000000000 P
b10000000000 U
b10000000000 ##
b10000000000 ."
b1000110 '"
b1000110 8"
1|
b1 x
0J
04"
b11000001 !#
b10000000000 I
b10000000000 :"
b10000000000 (#
b10000000000 r"
b1000110 k"
b1000110 "#
0C
0z"
1'
#60
0'
#65
1$"
1&"
0~
b0 ""
09"
13#
1\
b100000100 9#
b100000100 q#
b100000000 :#
b100000000 d#
b0 ?
b0 f
b0 =#
b0 S#
b100 t#
17#
1d
b1000101 F
b1000101 ="
b1000101 +#
b1000101 u"
b11000000 !#
b1 :
b1 @"
b1 1#
b1 w"
14"
1J
b1000101 M
b1000101 X
b1000101 &#
b1000101 1"
b100000000 M#
b100000000 g#
b11000000 V#
b11000000 K#
b11000000 [#
b11111111 H#
b11111111 Z#
1;
b100 s#
1'
#70
0'
#75
b100000100 :#
b100000100 d#
b1 ?
b1 f
b1 =#
b1 S#
b100 t#
b100001000 9#
b100001000 q#
03#
0\
b100000000 H#
b100000000 Z#
b10111111 V#
b10 X#
b100000100 M#
b100000100 g#
b10100011000 P
b10100011000 U
b10100011000 ##
b10100011000 ."
1#"
1%"
b0 '"
b0 8"
0|
b10 x
0J
04"
b10 :
b10 @"
b10 1#
b10 w"
b10111111 !#
b100 s#
1'
#80
0'
#85
b100001100 9#
b100001100 q#
b100001000 :#
b100001000 d#
b10 ?
b10 f
b10 =#
b10 S#
b100 t#
b10111110 !#
b11 :
b11 @"
b11 1#
b11 w"
b11111111 M
b11111111 X
b11111111 &#
b11111111 1"
b100001000 M#
b100001000 g#
b100000100 H#
b100000100 Z#
b10111110 V#
b100 s#
1'
#90
0'
#95
b100001100 :#
b100001100 d#
b11 ?
b11 f
b11 =#
b11 S#
b100 t#
b100010000 9#
b100010000 q#
b100001000 H#
b100001000 Z#
b10111101 V#
b100001100 M#
b100001100 g#
b100 :
b100 @"
b100 1#
b100 w"
b10111101 !#
b100 s#
1'
#100
0'
#105
b100010100 9#
b100010100 q#
b100010000 :#
b100010000 d#
b100 ?
b100 f
b100 =#
b100 S#
b100 t#
b10111100 !#
b101 :
b101 @"
b101 1#
b101 w"
b100010000 M#
b100010000 g#
b100001100 H#
b100001100 Z#
b10111100 V#
b100 s#
1'
#110
0'
#115
b100010100 :#
b100010100 d#
b101 ?
b101 f
b101 =#
b101 S#
b100 t#
b100011000 9#
b100011000 q#
b100010000 H#
b100010000 Z#
b10111011 V#
b100010100 M#
b100010100 g#
b110 :
b110 @"
b110 1#
b110 w"
b10111011 !#
b100 s#
1'
#120
0'
#125
b100011100 9#
b100011100 q#
b100011000 :#
b100011000 d#
b110 ?
b110 f
b110 =#
b110 S#
b100 t#
b10111010 !#
b111 :
b111 @"
b111 1#
b111 w"
b100011000 M#
b100011000 g#
b100010100 H#
b100010100 Z#
b10111010 V#
b100 s#
1'
#130
0'
#135
b100011100 :#
b100011100 d#
b111 ?
b111 f
b111 =#
b111 S#
b100 t#
b100100000 9#
b100100000 q#
b100011000 H#
b100011000 Z#
b10111001 V#
b100011100 M#
b100011100 g#
b1000 :
b1000 @"
b1000 1#
b1000 w"
b10111001 !#
b100 s#
1'
#140
0'
#145
b100100100 9#
b100100100 q#
b100100000 :#
b100100000 d#
b1000 ?
b1000 f
b1000 =#
b1000 S#
b100 t#
b10111000 !#
b1001 :
b1001 @"
b1001 1#
b1001 w"
b100100000 M#
b100100000 g#
b100011100 H#
b100011100 Z#
b10111000 V#
b100 s#
1'
#150
0'
#155
b100100100 :#
b100100100 d#
b1001 ?
b1001 f
b1001 =#
b1001 S#
b100 t#
b100101000 9#
b100101000 q#
b100100000 H#
b100100000 Z#
b10110111 V#
b100100100 M#
b100100100 g#
b1010 :
b1010 @"
b1010 1#
b1010 w"
b10110111 !#
b100 s#
1'
#160
0'
#165
b100101100 9#
b100101100 q#
b100101000 :#
b100101000 d#
b1010 ?
b1010 f
b1010 =#
b1010 S#
b100 t#
b10110110 !#
b1011 :
b1011 @"
b1011 1#
b1011 w"
b100101000 M#
b100101000 g#
b100100100 H#
b100100100 Z#
b10110110 V#
b100 s#
1'
#170
0'
#175
b100101100 :#
b100101100 d#
b1011 ?
b1011 f
b1011 =#
b1011 S#
b100 t#
b100110000 9#
b100110000 q#
b100101000 H#
b100101000 Z#
b10110101 V#
b100101100 M#
b100101100 g#
b1100 :
b1100 @"
b1100 1#
b1100 w"
b10110101 !#
b100 s#
1'
#180
0'
#185
b100110100 9#
b100110100 q#
b100110000 :#
b100110000 d#
b1100 ?
b1100 f
b1100 =#
b1100 S#
b100 t#
b10110100 !#
b1101 :
b1101 @"
b1101 1#
b1101 w"
b100110000 M#
b100110000 g#
b100101100 H#
b100101100 Z#
b10110100 V#
b100 s#
1'
#190
0'
#195
b100110100 :#
b100110100 d#
b1101 ?
b1101 f
b1101 =#
b1101 S#
b100 t#
b100111000 9#
b100111000 q#
b100110000 H#
b100110000 Z#
b10110011 V#
b100110100 M#
b100110100 g#
b1110 :
b1110 @"
b1110 1#
b1110 w"
b10110011 !#
b100 s#
1'
#200
0'
#205
b100111100 9#
b100111100 q#
b100111000 :#
b100111000 d#
b1110 ?
b1110 f
b1110 =#
b1110 S#
b100 t#
b10110010 !#
b1111 :
b1111 @"
b1111 1#
b1111 w"
b100111000 M#
b100111000 g#
b100110100 H#
b100110100 Z#
b10110010 V#
b100 s#
1'
#210
0'
#215
b100111100 :#
b100111100 d#
b1111 ?
b1111 f
b1111 =#
b1111 S#
b100 t#
b101000000 9#
b101000000 q#
b100111000 H#
b100111000 Z#
b10110001 V#
b100111100 M#
b100111100 g#
b10000 :
b10000 @"
b10000 1#
b10000 w"
b10110001 !#
b100 s#
1'
#220
0'
#225
b101000100 9#
b101000100 q#
b101000000 :#
b101000000 d#
b10000 ?
b10000 f
b10000 =#
b10000 S#
b100 t#
b10110000 !#
b10001 :
b10001 @"
b10001 1#
b10001 w"
b101000000 M#
b101000000 g#
b100111100 H#
b100111100 Z#
b10110000 V#
b100 s#
1'
#230
0'
#235
b101000100 :#
b101000100 d#
b10001 ?
b10001 f
b10001 =#
b10001 S#
b100 t#
b101001000 9#
b101001000 q#
b101000000 H#
b101000000 Z#
b10101111 V#
b101000100 M#
b101000100 g#
b10010 :
b10010 @"
b10010 1#
b10010 w"
b10101111 !#
b100 s#
1'
#240
0'
#245
b101001100 9#
b101001100 q#
b101001000 :#
b101001000 d#
b10010 ?
b10010 f
b10010 =#
b10010 S#
b100 t#
b10101110 !#
b10011 :
b10011 @"
b10011 1#
b10011 w"
b101001000 M#
b101001000 g#
b101000100 H#
b101000100 Z#
b10101110 V#
b100 s#
1'
#250
0'
#255
b101001100 :#
b101001100 d#
b10011 ?
b10011 f
b10011 =#
b10011 S#
b100 t#
b101010000 9#
b101010000 q#
b101001000 H#
b101001000 Z#
b10101101 V#
b101001100 M#
b101001100 g#
b10100 :
b10100 @"
b10100 1#
b10100 w"
b10101101 !#
b100 s#
1'
#260
0'
#265
b101010100 9#
b101010100 q#
b101010000 :#
b101010000 d#
b10100 ?
b10100 f
b10100 =#
b10100 S#
b100 t#
b10101100 !#
b10101 :
b10101 @"
b10101 1#
b10101 w"
b101010000 M#
b101010000 g#
b101001100 H#
b101001100 Z#
b10101100 V#
b100 s#
1'
#270
0'
#275
b101010100 :#
b101010100 d#
b10101 ?
b10101 f
b10101 =#
b10101 S#
b100 t#
b101011000 9#
b101011000 q#
b101010000 H#
b101010000 Z#
b10101011 V#
b101010100 M#
b101010100 g#
b10110 :
b10110 @"
b10110 1#
b10110 w"
b10101011 !#
b100 s#
1'
#280
0'
#285
b101011100 9#
b101011100 q#
b101011000 :#
b101011000 d#
b10110 ?
b10110 f
b10110 =#
b10110 S#
b100 t#
b10101010 !#
b10111 :
b10111 @"
b10111 1#
b10111 w"
b101011000 M#
b101011000 g#
b101010100 H#
b101010100 Z#
b10101010 V#
b100 s#
1'
#290
0'
#295
b101011100 :#
b101011100 d#
b10111 ?
b10111 f
b10111 =#
b10111 S#
b100 t#
b101100000 9#
b101100000 q#
b101011000 H#
b101011000 Z#
b10101001 V#
b101011100 M#
b101011100 g#
b11000 :
b11000 @"
b11000 1#
b11000 w"
b10101001 !#
b100 s#
1'
#300
0'
#305
b101100100 9#
b101100100 q#
b101100000 :#
b101100000 d#
b11000 ?
b11000 f
b11000 =#
b11000 S#
b100 t#
b10101000 !#
b11001 :
b11001 @"
b11001 1#
b11001 w"
b101100000 M#
b101100000 g#
b101011100 H#
b101011100 Z#
b10101000 V#
b100 s#
1'
#310
0'
#315
b101100100 :#
b101100100 d#
b11001 ?
b11001 f
b11001 =#
b11001 S#
b100 t#
b101101000 9#
b101101000 q#
b101100000 H#
b101100000 Z#
b10100111 V#
b101100100 M#
b101100100 g#
b11010 :
b11010 @"
b11010 1#
b11010 w"
b10100111 !#
b100 s#
1'
#320
0'
#325
b101101100 9#
b101101100 q#
b101101000 :#
b101101000 d#
b11010 ?
b11010 f
b11010 =#
b11010 S#
b100 t#
b10100110 !#
b11011 :
b11011 @"
b11011 1#
b11011 w"
b101101000 M#
b101101000 g#
b101100100 H#
b101100100 Z#
b10100110 V#
b100 s#
1'
#330
0'
#335
b101101100 :#
b101101100 d#
b11011 ?
b11011 f
b11011 =#
b11011 S#
b100 t#
b101110000 9#
b101110000 q#
b101101000 H#
b101101000 Z#
b10100101 V#
b101101100 M#
b101101100 g#
b11100 :
b11100 @"
b11100 1#
b11100 w"
b10100101 !#
b100 s#
1'
#340
0'
