build/DMAC.vcd
$date
	Sat Oct 15 20:56:55 2022
$end
$version
	Icarus Verilog
$end
$timescale
	1ns
$end
$scope module tb_DMAC $end
$var wire 2 ! AXI_BRESP [1:0] $end
$var wire 2 " AXI_RRESP [1:0] $end
$var wire 1 # cmd_abort $end
$var wire 1 $ cmd_ready $end
$var wire 1 % AXI_WVALID $end
$var wire 4 & AXI_WSTRB [3:0] $end
$var wire 1 ' AXI_WREADY $end
$var wire 1 ( AXI_WLAST $end
$var wire 32 ) AXI_WDATA [31:0] $end
$var wire 1 * AXI_RVALID $end
$var wire 1 + AXI_RREADY $end
$var wire 1 , AXI_RLAST $end
$var wire 2 - AXI_RID [1:0] $end
$var wire 32 . AXI_RDATA [31:0] $end
$var wire 1 / AXI_BVALID $end
$var wire 1 0 AXI_BREADY $end
$var wire 2 1 AXI_BID [1:0] $end
$var wire 1 2 AXI_AWVALID $end
$var wire 3 3 AXI_AWSIZE [2:0] $end
$var wire 1 4 AXI_AWREADY $end
$var wire 8 5 AXI_AWLEN [7:0] $end
$var wire 2 6 AXI_AWID [1:0] $end
$var wire 2 7 AXI_AWBURST [1:0] $end
$var wire 16 8 AXI_AWADDR [15:0] $end
$var wire 1 9 AXI_ARVALID $end
$var wire 3 : AXI_ARSIZE [2:0] $end
$var wire 1 ; AXI_ARREADY $end
$var wire 8 < AXI_ARLEN [7:0] $end
$var wire 2 = AXI_ARID [1:0] $end
$var wire 2 > AXI_ARBURST [1:0] $end
$var wire 16 ? AXI_ARADDR [15:0] $end
$var parameter 32 @ AXI_ADDR_WD $end
$var parameter 32 A AXI_DATA_WD $end
$var parameter 32 B AXI_ID_WD $end
$var parameter 32 C AXI_STRB_WD $end
$var reg 1 D clk $end
$var reg 16 E cmd_addr [15:0] $end
$var reg 2 F cmd_burst [1:0] $end
$var reg 2 G cmd_id [1:0] $end
$var reg 16 H cmd_len [15:0] $end
$var reg 3 I cmd_size [2:0] $end
$var reg 1 J cmd_valid $end
$var reg 1 K rst_n $end
$scope module DMA_CONTROLLER $end
$var wire 1 D AXI_ACLK $end
$var wire 1 K AXI_ARESETN $end
$var wire 2 L AXI_BRESP [1:0] $end
$var wire 2 M AXI_RRESP [1:0] $end
$var wire 1 # cmd_abort $end
$var wire 16 N cmd_addr [15:0] $end
$var wire 2 O cmd_burst [1:0] $end
$var wire 2 P cmd_id [1:0] $end
$var wire 16 Q cmd_len [15:0] $end
$var wire 1 $ cmd_ready $end
$var wire 3 R cmd_size [2:0] $end
$var wire 1 J cmd_valid $end
$var wire 1 % AXI_WVALID $end
$var wire 4 S AXI_WSTRB [3:0] $end
$var wire 1 ' AXI_WREADY $end
$var wire 1 ( AXI_WLAST $end
$var wire 32 T AXI_WDATA [31:0] $end
$var wire 1 * AXI_RVALID $end
$var wire 1 + AXI_RREADY $end
$var wire 1 , AXI_RLAST $end
$var wire 2 U AXI_RID [1:0] $end
$var wire 32 V AXI_RDATA [31:0] $end
$var wire 1 / AXI_BVALID $end
$var wire 1 0 AXI_BREADY $end
$var wire 2 W AXI_BID [1:0] $end
$var wire 1 2 AXI_AWVALID $end
$var wire 3 X AXI_AWSIZE [2:0] $end
$var wire 1 4 AXI_AWREADY $end
$var wire 8 Y AXI_AWLEN [7:0] $end
$var wire 2 Z AXI_AWID [1:0] $end
$var wire 2 [ AXI_AWBURST [1:0] $end
$var wire 16 \ AXI_AWADDR [15:0] $end
$var wire 1 9 AXI_ARVALID $end
$var wire 3 ] AXI_ARSIZE [2:0] $end
$var wire 1 ; AXI_ARREADY $end
$var wire 8 ^ AXI_ARLEN [7:0] $end
$var wire 2 _ AXI_ARID [1:0] $end
$var wire 2 ` AXI_ARBURST [1:0] $end
$var wire 16 a AXI_ARADDR [15:0] $end
$var parameter 32 b AXI_ADDR_WD $end
$var parameter 32 c AXI_DATA_WD $end
$var parameter 32 d AXI_ID_WD $end
$var parameter 32 e AXI_STRB_WD $end
$scope module axi_master_read $end
$var wire 1 D M_AXI_ACLK $end
$var wire 16 f M_AXI_ARADDR [15:0] $end
$var wire 2 g M_AXI_ARBURST [1:0] $end
$var wire 1 K M_AXI_ARESETN $end
$var wire 2 h M_AXI_ARID [1:0] $end
$var wire 8 i M_AXI_ARLEN [7:0] $end
$var wire 3 j M_AXI_ARSIZE [2:0] $end
$var wire 2 k M_AXI_RRESP [1:0] $end
$var wire 1 l ar_pending $end
$var wire 1 m arfire $end
$var wire 1 n last_rfire $end
$var wire 1 # r_cmd_abort $end
$var wire 16 o r_cmd_addr [15:0] $end
$var wire 2 p r_cmd_burst [1:0] $end
$var wire 2 q r_cmd_id [1:0] $end
$var wire 16 r r_cmd_len [15:0] $end
$var wire 1 $ r_cmd_ready $end
$var wire 3 s r_cmd_size [2:0] $end
$var wire 1 J r_cmd_valid $end
$var wire 1 t r_fire $end
$var wire 1 u rfire $end
$var wire 1 * M_AXI_RVALID $end
$var wire 1 + M_AXI_RREADY $end
$var wire 1 , M_AXI_RLAST $end
$var wire 2 v M_AXI_RID [1:0] $end
$var wire 32 w M_AXI_RDATA [31:0] $end
$var wire 1 9 M_AXI_ARVALID $end
$var wire 1 ; M_AXI_ARREADY $end
$var parameter 33 x ADDRLSB $end
$var parameter 32 y AW $end
$var parameter 34 z AWT $end
$var parameter 32 { AXI_ADDR_WD $end
$var parameter 32 | AXI_DATA_WD $end
$var parameter 32 } AXI_ID_WD $end
$var parameter 32 ~ AXI_STRB_WD $end
$var parameter 32 !" DW $end
$var parameter 2 "" FIXED $end
$var parameter 2 #" INCREMENT $end
$var parameter 32 $" IW $end
$var parameter 32 %" LGMAXBURST $end
$var parameter 32 &" LGMAX_FIXED_BURST $end
$var parameter 32 '" SW $end
$var parameter 32 (" T_LGMAXBURST $end
$var parameter 2 )" WRAP $end
$var reg 8 *" addr_align_combo [7:0] $end
$var reg 10 +" ar_burst_outstanding [9:0] $end
$var reg 1 ," ar_full_fixed_burst $end
$var reg 1 -" ar_full_incr_burst $end
$var reg 1 ." ar_incr_burst $end
$var reg 1 /" ar_last_outstanding $end
$var reg 1 0" ar_needs_alignment $end
$var reg 1 1" ar_next_full_fixed_burst_remaining_combo $end
$var reg 1 2" ar_next_full_incr_burst_remaining_combo $end
$var reg 14 3" ar_next_remaining_combo [13:0] $end
$var reg 1 4" ar_none_fixed_burst_remaining $end
$var reg 1 5" ar_none_fixed_burst_remaining_combo $end
$var reg 1 6" ar_none_incr_burst_remaining $end
$var reg 1 7" ar_none_incr_burst_remaining_combo $end
$var reg 14 8" ar_requests_remaining [13:0] $end
$var reg 16 9" araddr [15:0] $end
$var reg 2 :" arburst [1:0] $end
$var reg 2 ;" arid [1:0] $end
$var reg 14 <" arlent [13:0] $end
$var reg 3 =" arsize [2:0] $end
$var reg 1 >" axi_abort_pending $end
$var reg 16 ?" axi_araddr [15:0] $end
$var reg 2 @" axi_arburst [1:0] $end
$var reg 2 A" axi_arid [1:0] $end
$var reg 8 B" axi_arlen [7:0] $end
$var reg 3 C" axi_arsize [2:0] $end
$var reg 1 9 axi_arvalid $end
$var reg 1 + axi_rready $end
$var reg 9 D" initial_burst_len_combo [8:0] $end
$var reg 1 E" phantom_start $end
$var reg 1 F" pre_start $end
$var reg 1 G" r_busy $end
$var reg 1 H" r_complete_combo $end
$var reg 9 I" rd_max_burst [8:0] $end
$var reg 1 J" start_burst_combo $end
$upscope $end
$scope module axi_master_write $end
$var wire 1 D M_AXI_ACLK $end
$var wire 1 K M_AXI_ARESETN $end
$var wire 16 K" M_AXI_AWADDR [15:0] $end
$var wire 2 L" M_AXI_AWBURST [1:0] $end
$var wire 2 M" M_AXI_AWID [1:0] $end
$var wire 8 N" M_AXI_AWLEN [7:0] $end
$var wire 3 O" M_AXI_AWSIZE [2:0] $end
$var wire 2 P" M_AXI_BRESP [1:0] $end
$var wire 32 Q" M_AXI_WDATA [31:0] $end
$var wire 4 R" M_AXI_WSTRB [3:0] $end
$var wire 1 S" aw_pending $end
$var wire 1 T" awfire $end
$var wire 1 U" bfire $end
$var wire 1 V" last_wfire $end
$var wire 1 # w_cmd_abort $end
$var wire 16 W" w_cmd_addr [15:0] $end
$var wire 2 X" w_cmd_burst [1:0] $end
$var wire 2 Y" w_cmd_id [1:0] $end
$var wire 16 Z" w_cmd_len [15:0] $end
$var wire 1 $ w_cmd_ready $end
$var wire 3 [" w_cmd_size [2:0] $end
$var wire 1 J w_cmd_valid $end
$var wire 1 \" w_fire $end
$var wire 1 ]" w_pending $end
$var wire 1 ^" wfire $end
$var wire 1 % M_AXI_WVALID $end
$var wire 1 ' M_AXI_WREADY $end
$var wire 1 ( M_AXI_WLAST $end
$var wire 1 / M_AXI_BVALID $end
$var wire 1 0 M_AXI_BREADY $end
$var wire 2 _" M_AXI_BID [1:0] $end
$var wire 1 2 M_AXI_AWVALID $end
$var wire 1 4 M_AXI_AWREADY $end
$var parameter 33 `" ADDRLSB $end
$var parameter 32 a" AW $end
$var parameter 34 b" AWT $end
$var parameter 32 c" AXI_ADDR_WD $end
$var parameter 32 d" AXI_DATA_WD $end
$var parameter 32 e" AXI_ID_WD $end
$var parameter 32 f" AXI_STRB_WD $end
$var parameter 32 g" DW $end
$var parameter 2 h" FIXED $end
$var parameter 2 i" INCREMENT $end
$var parameter 32 j" IW $end
$var parameter 32 k" LGMAXBURST $end
$var parameter 32 l" LGMAX_FIXED_BURST $end
$var parameter 32 m" SW $end
$var parameter 32 n" T_LGMAXBURST $end
$var parameter 2 o" WRAP $end
$var reg 8 p" addr_align_combo [7:0] $end
$var reg 1 q" aw_full_fixed_burst $end
$var reg 1 r" aw_full_incr_burst $end
$var reg 1 s" aw_incr_burst $end
$var reg 1 t" aw_needs_alignment $end
$var reg 1 u" aw_next_full_fixed_burst_remaining_combo $end
$var reg 1 v" aw_next_full_incr_burst_remaining_combo $end
$var reg 14 w" aw_next_remaining_combo [13:0] $end
$var reg 1 x" aw_none_fixed_burst_remaining $end
$var reg 1 y" aw_none_fixed_burst_remaining_combo $end
$var reg 1 z" aw_none_incr_burst_remaining $end
$var reg 1 {" aw_none_incr_burst_remaining_combo $end
$var reg 14 |" aw_requests_remaining [13:0] $end
$var reg 16 }" awaddr [15:0] $end
$var reg 2 ~" awburst [1:0] $end
$var reg 2 !# awid [1:0] $end
$var reg 14 "# awlent [13:0] $end
$var reg 3 ## awsize [2:0] $end
$var reg 1 $# axi_abort_pending $end
$var reg 16 %# axi_awaddr [15:0] $end
$var reg 2 &# axi_awburst [1:0] $end
$var reg 2 '# axi_awid [1:0] $end
$var reg 8 (# axi_awlen [7:0] $end
$var reg 3 )# axi_awsize [2:0] $end
$var reg 1 2 axi_awvalid $end
$var reg 1 0 axi_bready $end
$var reg 32 *# axi_wdata [31:0] $end
$var reg 1 ( axi_wlast $end
$var reg 4 +# axi_wstrb [3:0] $end
$var reg 1 % axi_wvalid $end
$var reg 9 ,# initial_burst_len_combo [8:0] $end
$var reg 1 -# phantom_start $end
$var reg 1 .# pre_start $end
$var reg 1 /# start_burst_combo $end
$var reg 1 0# w_busy $end
$var reg 1 1# w_complete_combo $end
$var reg 9 2# wr_beats_cnt [8:0] $end
$var reg 9 3# wr_max_burst [8:0] $end
$upscope $end
$upscope $end
$scope module axi_slave_outstanding $end
$var wire 1 D S_AXI_ACLK $end
$var wire 16 4# S_AXI_ARADDR [15:0] $end
$var wire 2 5# S_AXI_ARBURST [1:0] $end
$var wire 1 K S_AXI_ARESETN $end
$var wire 2 6# S_AXI_ARID [1:0] $end
$var wire 8 7# S_AXI_ARLEN [7:0] $end
$var wire 3 8# S_AXI_ARSIZE [2:0] $end
$var wire 1 9 S_AXI_ARVALID $end
$var wire 16 9# S_AXI_AWADDR [15:0] $end
$var wire 2 :# S_AXI_AWBURST [1:0] $end
$var wire 2 ;# S_AXI_AWID [1:0] $end
$var wire 8 <# S_AXI_AWLEN [7:0] $end
$var wire 3 =# S_AXI_AWSIZE [2:0] $end
$var wire 1 2 S_AXI_AWVALID $end
$var wire 2 ># S_AXI_BID [1:0] $end
$var wire 1 0 S_AXI_BREADY $end
$var wire 2 ?# S_AXI_BRESP [1:0] $end
$var wire 2 @# S_AXI_RID [1:0] $end
$var wire 1 + S_AXI_RREADY $end
$var wire 2 A# S_AXI_RRESP [1:0] $end
$var wire 32 B# S_AXI_WDATA [31:0] $end
$var wire 1 ( S_AXI_WLAST $end
$var wire 4 C# S_AXI_WSTRB [3:0] $end
$var wire 1 % S_AXI_WVALID $end
$var wire 1 D# arfire $end
$var wire 1 E# awfire $end
$var wire 1 F# b_pend $end
$var wire 1 G# r_pend $end
$var wire 1 H# rfire $end
$var wire 1 I# wfire $end
$var wire 16 J# next_wr_addr [15:0] $end
$var wire 16 K# next_rd_addr [15:0] $end
$var wire 1 L# fifo_full $end
$var wire 1 M# fifo_empty $end
$var wire 1 ' S_AXI_WREADY $end
$var wire 1 * S_AXI_RVALID $end
$var wire 1 , S_AXI_RLAST $end
$var wire 32 N# S_AXI_RDATA [31:0] $end
$var wire 1 / S_AXI_BVALID $end
$var wire 1 4 S_AXI_AWREADY $end
$var wire 1 ; S_AXI_ARREADY $end
$var parameter 32 O# AW $end
$var parameter 32 P# AXI_ADDR_WD $end
$var parameter 32 Q# AXI_DATA_WD $end
$var parameter 32 R# AXI_ID_WD $end
$var parameter 32 S# AXI_STRB_WD $end
$var parameter 48 T# DEPTH $end
$var parameter 32 U# DW $end
$var parameter 32 V# DW_BYTE $end
$var parameter 32 W# IW $end
$var parameter 32 X# SW $end
$var reg 16 Y# araddr [15:0] $end
$var reg 2 Z# arburst [1:0] $end
$var reg 2 [# arid [1:0] $end
$var reg 8 \# arlen [7:0] $end
$var reg 3 ]# arsize [2:0] $end
$var reg 16 ^# awaddr [15:0] $end
$var reg 2 _# awburst [1:0] $end
$var reg 2 `# awid [1:0] $end
$var reg 8 a# awlen [7:0] $end
$var reg 3 b# awsize [2:0] $end
$var reg 1 ; axi_arready $end
$var reg 1 4 axi_awready $end
$var reg 2 c# axi_bid [1:0] $end
$var reg 1 / axi_bvalid $end
$var reg 16 d# axi_rdata [15:0] $end
$var reg 2 e# axi_rid [1:0] $end
$var reg 1 , axi_rlast $end
$var reg 1 * axi_rvalid $end
$var reg 1 ' axi_wready $end
$var reg 1 f# bvalid_r $end
$var reg 8 g# cur_rlen [7:0] $end
$var reg 5 h# rd_ptr [4:0] $end
$var reg 5 i# wr_ptr [4:0] $end
$scope module get_next_rd_addr $end
$var wire 2 j# i_burst [1:0] $end
$var wire 16 k# i_last_addr [15:0] $end
$var wire 8 l# i_len [7:0] $end
$var wire 3 m# i_size [2:0] $end
$var parameter 32 n# AW $end
$var parameter 33 o# DSZ $end
$var parameter 32 p# DW $end
$var parameter 2 q# FIXED $end
$var parameter 2 r# INCREMENT $end
$var parameter 2 s# WRAP $end
$var reg 16 t# increment [15:0] $end
$var reg 16 u# o_next_addr [15:0] $end
$var reg 16 v# wrap_mask [15:0] $end
$upscope $end
$scope module get_next_wr_addr $end
$var wire 2 w# i_burst [1:0] $end
$var wire 16 x# i_last_addr [15:0] $end
$var wire 8 y# i_len [7:0] $end
$var wire 3 z# i_size [2:0] $end
$var parameter 32 {# AW $end
$var parameter 33 |# DSZ $end
$var parameter 32 }# DW $end
$var parameter 2 ~# FIXED $end
$var parameter 2 !$ INCREMENT $end
$var parameter 2 "$ WRAP $end
$var reg 16 #$ increment [15:0] $end
$var reg 16 $$ o_next_addr [15:0] $end
$var reg 16 %$ wrap_mask [15:0] $end
$upscope $end
$scope begin $ivl_for_loop0 $end
$var integer 32 &$ i [31:0] $end
$upscope $end
$scope begin $ivl_for_loop1 $end
$var integer 32 '$ i [31:0] $end
$upscope $end
$upscope $end
$upscope $end
$enddefinitions $end
$comment Show the parameter values. $end
$dumpall
b10 "$
b1 !$
b0 ~#
b100000 }#
b10 |#
b10000 {#
b10 s#
b1 r#
b0 q#
b100000 p#
b10 o#
b10000 n#
b100 X#
b10 W#
b100 V#
b100000 U#
b10000000000000000 T#
b100 S#
b10 R#
b100000 Q#
b10000 P#
b10000 O#
b10 o"
b1010 n"
b100 m"
b100 l"
b1000 k"
b10 j"
b1 i"
b0 h"
b100000 g"
b100 f"
b10 e"
b100000 d"
b10000 c"
b1110 b"
b10000 a"
b10 `"
b10 )"
b1010 ("
b100 '"
b100 &"
b1000 %"
b10 $"
b1 #"
b0 ""
b100000 !"
b100 ~
b10 }
b100000 |
b10000 {
b1110 z
b10000 y
b10 x
b100 e
b10 d
b100000 c
b10000 b
b100 C
b10 B
b100000 A
b10000 @
$end
#0
$dumpvars
bx '$
bx &$
bx %$
bx $$
bx #$
bx z#
bx y#
bx x#
bx w#
bx v#
bx u#
bx t#
bx m#
bx l#
bx k#
bx j#
bx i#
bx h#
bx g#
xf#
bx e#
bx d#
bx c#
bx b#
bx a#
bx `#
bx _#
bx ^#
bx ]#
bx \#
bx [#
bx Z#
bx Y#
b0xxxxxxxxxxxxxxxx N#
xM#
xL#
bx K#
bx J#
xI#
xH#
xG#
xF#
xE#
xD#
bx C#
bx B#
b0 A#
bx @#
b0 ?#
bx >#
bx =#
bx <#
bx ;#
bx :#
bx 9#
bx 8#
bx 7#
bx 6#
bx 5#
bx 4#
bx 3#
bx 2#
x1#
x0#
x/#
x.#
x-#
bx ,#
bx +#
bx *#
bx )#
bx (#
bx '#
bx &#
bx %#
x$#
bx ##
bx "#
bx !#
bx ~"
bx }"
bx |"
x{"
xz"
xy"
xx"
bx w"
xv"
xu"
xt"
xs"
xr"
xq"
bx p"
bx _"
x^"
x]"
x\"
b10 ["
b100000100000 Z"
b0 Y"
b1 X"
b11111111 W"
xV"
xU"
xT"
xS"
bx R"
bx Q"
b0 P"
bx O"
bx N"
bx M"
bx L"
bx K"
xJ"
bx I"
xH"
xG"
xF"
xE"
bx D"
bx C"
bx B"
bx A"
bx @"
bx ?"
x>"
bx ="
bx <"
bx ;"
bx :"
bx 9"
bx 8"
x7"
x6"
x5"
x4"
bx 3"
x2"
x1"
x0"
x/"
x."
x-"
x,"
bx +"
bx *"
b0xxxxxxxxxxxxxxxx w
bx v
xu
xt
b10 s
b100000100000 r
b0 q
b1 p
b11111111 o
xn
xm
xl
b0 k
bx j
bx i
bx h
bx g
bx f
bx a
bx `
bx _
bx ^
bx ]
bx \
bx [
bx Z
bx Y
bx X
bx W
b0xxxxxxxxxxxxxxxx V
bx U
bx T
bx S
b10 R
b100000100000 Q
b0 P
b1 O
b11111111 N
b0 M
b0 L
0K
1J
b10 I
b100000100000 H
b0 G
b1 F
b11111111 E
0D
bx ?
bx >
bx =
bx <
x;
bx :
x9
bx 8
bx 7
bx 6
bx 5
x4
bx 3
x2
bx 1
x0
x/
b0xxxxxxxxxxxxxxxx .
bx -
x,
x+
x*
bx )
x(
x'
bx &
x%
x$
x#
b0 "
b0 !
$end
#5
0V"
0L#
01#
b0 ,#
b0 p"
0H"
0J"
b0 D"
b0 *"
0I#
0]"
0^"
0/#
0E#
0S"
0T"
0F#
0U"
0D#
0l
0m
0G#
0H#
0u
0n
00#
0.#
02
0q"
0r"
1s"
b0 }"
b0 !#
b0 "#
b0 ##
b1 ~"
0%
b0 2#
b0 )
b0 T
b0 Q"
b0 B#
b0 *#
00
0G"
0F"
09
0/"
b0 +"
0,"
0-"
1."
b0 9"
b0 ;"
b0 <"
b0 ="
b1 :"
0+
0'
14
0/
0f#
1M#
b0 i#
b0 h#
b0 g#
1;
0*
0,
1D
#7
1K
#10
0D
#15
1t
1\"
b11000001 D"
b11000001 *"
1$
0J"
b11000001 ,#
b11000001 p"
0/#
b0 ?
b0 a
b0 f
b0 4#
b0 ?"
10"
b0 :
b0 ]
b0 j
b0 8#
b0 C"
b0 =
b0 _
b0 h
b0 6#
b0 A"
b1 >
b1 `
b1 g
b1 5#
b1 @"
1,"
1-"
b11111111 9"
b1000001000 <"
b10 ="
0#
0>"
0E"
1F"
0(
b0 8
b0 \
b0 K"
b0 9#
b0 %#
1t"
b0 3
b0 X
b0 O"
b0 =#
b0 )#
b0 6
b0 Z
b0 M"
b0 ;#
b0 '#
b1 7
b1 [
b1 L"
b1 :#
b1 &#
1q"
1r"
b11111111 }"
b1000001000 "#
b10 ##
0$#
0-#
1.#
1D
#20
0D
#25
b11000001 ,#
0/#
0y"
0{"
1u"
1v"
b1000001000 w"
0$
b11000001 D"
0J"
05"
07"
11"
12"
b1000001000 3"
b0 %$
b1 #$
b1 J#
b1 $$
b0 v#
b1 t#
0t
0\"
10#
b10 3
b10 X
b10 O"
b10 =#
b10 )#
1t"
b11000001 3#
0x"
0z"
b1000001000 |"
b11111111 8
b11111111 \
b11111111 K"
b11111111 9#
b11111111 %#
b1111 &
b1111 S
b1111 R"
b1111 C#
b1111 +#
1G"
b10 :
b10 ]
b10 j
b10 8#
b10 C"
10"
b11000001 I"
04"
06"
b1000001000 8"
b11111111 ?
b11111111 a
b11111111 f
b11111111 4#
b11111111 ?"
b0 b#
b0 z#
b1 _#
b1 w#
b0 `#
b0 ^#
b0 x#
b0 ]#
b0 m#
b1 Z#
b1 j#
b0 [#
0J
1D
#30
0D
#35
bx00 K#
bx00 u#
b100 t#
b100 #$
b100000000 J#
b100000000 $$
1J"
1/#
b0 -
b0 U
b0 v
b0 @#
b0 e#
b10 ]#
b10 m#
b0 1
b0 W
b0 _"
b0 >#
b0 c#
b10 b#
b10 z#
b11111111 ^#
b11111111 x#
b11000000 <
b11000000 ^
b11000000 i
b11000000 7#
b11000000 B"
0F"
b11000000 5
b11000000 Y
b11000000 N"
b11000000 <#
b11000000 (#
0.#
1D
#40
0D
#45
b101000111 w"
1E#
1T"
1]"
0/#
b101000111 3"
0J"
1D#
1m
1-#
12
1%
1E"
19
b11000000 a#
b11000000 y#
1D
#50
0D
#55
1I#
0]"
1^"
1J"
0D#
0m
0/#
0E#
0T"
0M#
b1 i#
1'
04
1+
b10000000000 ?
b10000000000 a
b10000000000 f
b10000000000 4#
b10000000000 ?"
b101000111 8"
b100000000 I"
1/"
b1 +"
09
0E"
b11000001 2#
b10000000000 8
b10000000000 \
b10000000000 K"
b10000000000 9#
b10000000000 %#
b101000111 |"
b100000000 3#
02
0-#
1D
#60
0D
#65
02"
b1000111 3"
0J"
1D#
1m
b100000100 J#
b100000100 $$
b100 K#
b100 u#
b100 '$
1H#
1u
b11111111 5
b11111111 Y
b11111111 N"
b11111111 <#
b11111111 (#
b11000000 2#
b1 )
b1 T
b1 Q"
b1 B#
b1 *#
1E"
19
b11111111 <
b11111111 ^
b11111111 i
b11111111 7#
b11111111 B"
b100000000 ^#
b100000000 x#
b11000000 g#
b11000000 \#
b11000000 l#
b0 Y#
b0 k#
1*
b100 &$
1D
#70
0D
#75
b1000 K#
b1000 u#
b100 '$
b100001000 J#
b100001000 $$
1J"
0D#
0m
b100 Y#
b100 k#
b10111111 g#
b10 i#
b100000100 ^#
b100000100 x#
b100000000000 ?
b100000000000 a
b100000000000 f
b100000000000 4#
b100000000000 ?"
b1000111 8"
b1000111 I"
0/"
b10 +"
09
0E"
b10 )
b10 T
b10 Q"
b10 B#
b10 *#
b10111111 2#
b100 &$
1D
#80
0D
#85
15"
17"
01"
b0 3"
0J"
1D#
1m
b100001100 J#
b100001100 $$
b1100 K#
b1100 u#
b100 '$
b10111110 2#
b11 )
b11 T
b11 Q"
b11 B#
b11 *#
1E"
19
b1000110 <
b1000110 ^
b1000110 i
b1000110 7#
b1000110 B"
b100001000 ^#
b100001000 x#
b1000 Y#
b1000 k#
b10111110 g#
b100 &$
1D
#90
0D
#95
b10000 K#
b10000 u#
b100 '$
b100010000 J#
b100010000 $$
0D#
0m
b1100 Y#
b1100 k#
b10111101 g#
b11 i#
b100001100 ^#
b100001100 x#
b100100011100 ?
b100100011100 a
b100100011100 f
b100100011100 4#
b100100011100 ?"
14"
16"
b0 8"
b0 I"
b11 +"
09
0E"
b100 )
b100 T
b100 Q"
b100 B#
b100 *#
b10111101 2#
b100 &$
1D
#100
0D
#105
b100010100 J#
b100010100 $$
b10100 K#
b10100 u#
b100 '$
b10111100 2#
b101 )
b101 T
b101 Q"
b101 B#
b101 *#
b11111111 <
b11111111 ^
b11111111 i
b11111111 7#
b11111111 B"
b100010000 ^#
b100010000 x#
b10000 Y#
b10000 k#
b10111100 g#
b100 &$
1D
#110
0D
#115
b11000 K#
b11000 u#
b100 '$
b100011000 J#
b100011000 $$
b10100 Y#
b10100 k#
b10111011 g#
b100010100 ^#
b100010100 x#
b110 )
b110 T
b110 Q"
b110 B#
b110 *#
b10111011 2#
b100 &$
1D
#120
0D
#125
b100011100 J#
b100011100 $$
b11100 K#
b11100 u#
b100 '$
b10111010 2#
b111 )
b111 T
b111 Q"
b111 B#
b111 *#
b100011000 ^#
b100011000 x#
b11000 Y#
b11000 k#
b10111010 g#
b100 &$
1D
#130
0D
#135
b100000 K#
b100000 u#
b100 '$
b100100000 J#
b100100000 $$
b11100 Y#
b11100 k#
b10111001 g#
b100011100 ^#
b100011100 x#
b1000 )
b1000 T
b1000 Q"
b1000 B#
b1000 *#
b10111001 2#
b100 &$
1D
#140
0D
#145
b100100100 J#
b100100100 $$
b100100 K#
b100100 u#
b100 '$
b10111000 2#
b1001 )
b1001 T
b1001 Q"
b1001 B#
b1001 *#
b100100000 ^#
b100100000 x#
b100000 Y#
b100000 k#
b10111000 g#
b100 &$
1D
#150
0D
#155
b101000 K#
b101000 u#
b100 '$
b100101000 J#
b100101000 $$
b100100 Y#
b100100 k#
b10110111 g#
b100100100 ^#
b100100100 x#
b1010 )
b1010 T
b1010 Q"
b1010 B#
b1010 *#
b10110111 2#
b100 &$
1D
#160
0D
#165
b100101100 J#
b100101100 $$
b101100 K#
b101100 u#
b100 '$
b10110110 2#
b1011 )
b1011 T
b1011 Q"
b1011 B#
b1011 *#
b100101000 ^#
b100101000 x#
b101000 Y#
b101000 k#
b10110110 g#
b100 &$
1D
#170
0D
#175
b110000 K#
b110000 u#
b100 '$
b100110000 J#
b100110000 $$
b101100 Y#
b101100 k#
b10110101 g#
b100101100 ^#
b100101100 x#
b1100 )
b1100 T
b1100 Q"
b1100 B#
b1100 *#
b10110101 2#
b100 &$
1D
#180
0D
#185
b100110100 J#
b100110100 $$
b110100 K#
b110100 u#
b100 '$
b10110100 2#
b1101 )
b1101 T
b1101 Q"
b1101 B#
b1101 *#
b100110000 ^#
b100110000 x#
b110000 Y#
b110000 k#
b10110100 g#
b100 &$
1D
#190
0D
#195
b111000 K#
b111000 u#
b100 '$
b100111000 J#
b100111000 $$
b110100 Y#
b110100 k#
b10110011 g#
b100110100 ^#
b100110100 x#
b1110 )
b1110 T
b1110 Q"
b1110 B#
b1110 *#
b10110011 2#
b100 &$
1D
#200
0D
#205
b100111100 J#
b100111100 $$
b111100 K#
b111100 u#
b100 '$
b10110010 2#
b1111 )
b1111 T
b1111 Q"
b1111 B#
b1111 *#
b100111000 ^#
b100111000 x#
b111000 Y#
b111000 k#
b10110010 g#
b100 &$
1D
#210
0D
#215
b1000000 K#
b1000000 u#
b100 '$
b101000000 J#
b101000000 $$
b111100 Y#
b111100 k#
b10110001 g#
b100111100 ^#
b100111100 x#
b10000 )
b10000 T
b10000 Q"
b10000 B#
b10000 *#
b10110001 2#
b100 &$
1D
#220
0D
#225
b101000100 J#
b101000100 $$
b1000100 K#
b1000100 u#
b100 '$
b10110000 2#
b10001 )
b10001 T
b10001 Q"
b10001 B#
b10001 *#
b101000000 ^#
b101000000 x#
b1000000 Y#
b1000000 k#
b10110000 g#
b100 &$
1D
#230
0D
#235
b1001000 K#
b1001000 u#
b100 '$
b101001000 J#
b101001000 $$
b1000100 Y#
b1000100 k#
b10101111 g#
b101000100 ^#
b101000100 x#
b10010 )
b10010 T
b10010 Q"
b10010 B#
b10010 *#
b10101111 2#
b100 &$
1D
#240
0D
#245
b101001100 J#
b101001100 $$
b1001100 K#
b1001100 u#
b100 '$
b10101110 2#
b10011 )
b10011 T
b10011 Q"
b10011 B#
b10011 *#
b101001000 ^#
b101001000 x#
b1001000 Y#
b1001000 k#
b10101110 g#
b100 &$
1D
#250
0D
#255
b1010000 K#
b1010000 u#
b100 '$
b101010000 J#
b101010000 $$
b1001100 Y#
b1001100 k#
b10101101 g#
b101001100 ^#
b101001100 x#
b10100 )
b10100 T
b10100 Q"
b10100 B#
b10100 *#
b10101101 2#
b100 &$
1D
#260
0D
#265
b101010100 J#
b101010100 $$
b1010100 K#
b1010100 u#
b100 '$
b10101100 2#
b10101 )
b10101 T
b10101 Q"
b10101 B#
b10101 *#
b101010000 ^#
b101010000 x#
b1010000 Y#
b1010000 k#
b10101100 g#
b100 &$
1D
#270
0D
#275
b1011000 K#
b1011000 u#
b100 '$
b101011000 J#
b101011000 $$
b1010100 Y#
b1010100 k#
b10101011 g#
b101010100 ^#
b101010100 x#
b10110 )
b10110 T
b10110 Q"
b10110 B#
b10110 *#
b10101011 2#
b100 &$
1D
#280
0D
#285
b101011100 J#
b101011100 $$
b1011100 K#
b1011100 u#
b100 '$
b10101010 2#
b10111 )
b10111 T
b10111 Q"
b10111 B#
b10111 *#
b101011000 ^#
b101011000 x#
b1011000 Y#
b1011000 k#
b10101010 g#
b100 &$
1D
#290
0D
#295
b1100000 K#
b1100000 u#
b100 '$
b101100000 J#
b101100000 $$
b1011100 Y#
b1011100 k#
b10101001 g#
b101011100 ^#
b101011100 x#
b11000 )
b11000 T
b11000 Q"
b11000 B#
b11000 *#
b10101001 2#
b100 &$
1D
#300
0D
#305
b101100100 J#
b101100100 $$
b1100100 K#
b1100100 u#
b100 '$
b10101000 2#
b11001 )
b11001 T
b11001 Q"
b11001 B#
b11001 *#
b101100000 ^#
b101100000 x#
b1100000 Y#
b1100000 k#
b10101000 g#
b100 &$
1D
#310
0D
